rtl_single_cycle/pdf.vcd
$version Generated by VerilatedVcd $end
$date Fri Dec  6 15:17:47 2024 $end
$timescale 1ps $end

 $scope module TOP $end
  $var wire 32 b a0 [31:0] $end
  $var wire 32 c a1 [31:0] $end
  $var wire 32 l a10 [31:0] $end
  $var wire 32 m a11 [31:0] $end
  $var wire 32 n a12 [31:0] $end
  $var wire 32 o a13 [31:0] $end
  $var wire 32 p a14 [31:0] $end
  $var wire 32 q a15 [31:0] $end
  $var wire 32 r a16 [31:0] $end
  $var wire 32 s a17 [31:0] $end
  $var wire 32 t a18 [31:0] $end
  $var wire 32 u a19 [31:0] $end
  $var wire 32 d a2 [31:0] $end
  $var wire 32 v a20 [31:0] $end
  $var wire 32 e a3 [31:0] $end
  $var wire 32 f a4 [31:0] $end
  $var wire 32 g a5 [31:0] $end
  $var wire 32 h a6 [31:0] $end
  $var wire 32 i a7 [31:0] $end
  $var wire 32 j a8 [31:0] $end
  $var wire 32 k a9 [31:0] $end
  $var wire  1 ` clk $end
  $var wire  1 a rst $end
  $var wire 32 w t1 [31:0] $end
  $scope module top $end
   $var wire  5 ( A1 [4:0] $end
   $var wire  5 ) A2 [4:0] $end
   $var wire  5 * A3 [4:0] $end
   $var wire 32 3 ALUResult [31:0] $end
   $var wire  1 / ALUSrc $end
   $var wire  4 . ALUctrl [3:0] $end
   $var wire 32 $ ExtImm [31:0] $end
   $var wire  3 ' ImmSrc [2:0] $end
   $var wire  1 1 MemWrite $end
   $var wire 32 % PC [31:0] $end
   $var wire  2 # PCSrc [1:0] $end
   $var wire 32 x RD [31:0] $end
   $var wire 32 , RD1 [31:0] $end
   $var wire 32 - RD2 [31:0] $end
   $var wire  1 + RegWrite $end
   $var wire 32 y Result [31:0] $end
   $var wire  2 0 ResultSrc [1:0] $end
   $var wire 32 , SrcA [31:0] $end
   $var wire 32 5 SrcB [31:0] $end
   $var wire 32 z WIDTH [31:0] $end
   $var wire  1 4 Zero $end
   $var wire 32 b a0 [31:0] $end
   $var wire 32 c a1 [31:0] $end
   $var wire 32 l a10 [31:0] $end
   $var wire 32 m a11 [31:0] $end
   $var wire 32 n a12 [31:0] $end
   $var wire 32 o a13 [31:0] $end
   $var wire 32 p a14 [31:0] $end
   $var wire 32 q a15 [31:0] $end
   $var wire 32 r a16 [31:0] $end
   $var wire 32 s a17 [31:0] $end
   $var wire 32 t a18 [31:0] $end
   $var wire 32 u a19 [31:0] $end
   $var wire 32 d a2 [31:0] $end
   $var wire 32 v a20 [31:0] $end
   $var wire 32 e a3 [31:0] $end
   $var wire 32 f a4 [31:0] $end
   $var wire 32 g a5 [31:0] $end
   $var wire 32 h a6 [31:0] $end
   $var wire 32 i a7 [31:0] $end
   $var wire 32 j a8 [31:0] $end
   $var wire 32 k a9 [31:0] $end
   $var wire 32 % addr [31:0] $end
   $var wire  1 ` clk $end
   $var wire 32 & instr [31:0] $end
   $var wire  3 2 modeBU [2:0] $end
   $var wire  1 a rst $end
   $var wire 32 w t1 [31:0] $end
   $scope module alu $end
    $var wire 32 3 ALUResult [31:0] $end
    $var wire  4 . ALUctrl [3:0] $end
    $var wire 32 { CONTROL_WIDTH [31:0] $end
    $var wire 32 z DATA_WIDTH [31:0] $end
    $var wire 32 , SrcA [31:0] $end
    $var wire 32 5 SrcB [31:0] $end
    $var wire  1 4 Zero $end
   $upscope $end
   $scope module control_unit $end
    $var wire  4 . ALUCtrl [3:0] $end
    $var wire  2 9 ALUOp [1:0] $end
    $var wire  1 / ALUSrc $end
    $var wire 32 z DATA_WIDTH [31:0] $end
    $var wire  3 ' ImmSrc [2:0] $end
    $var wire 32 & Instr [31:0] $end
    $var wire  1 ; Load $end
    $var wire  1 1 MemWrite $end
    $var wire  2 # PCSrc [1:0] $end
    $var wire  1 + RegWrite $end
    $var wire  2 0 ResultSrc [1:0] $end
    $var wire  1 : Store $end
    $var wire  3 7 funct3 [14:12] $end
    $var wire  1 8 funct7 $end
    $var wire  3 2 modeBU [2:0] $end
    $var wire  7 6 op [6:0] $end
    $scope module alu_decoder $end
     $var wire  4 . ALUCtrl [3:0] $end
     $var wire  2 9 ALUOp [1:0] $end
     $var wire  3 7 funct3 [2:0] $end
     $var wire  1 8 funct7 $end
     $var wire  1 < op $end
    $upscope $end
   $upscope $end
   $scope module data_memory $end
    $var wire 32 3 A [31:0] $end
    $var wire 32 x RD [31:0] $end
    $var wire 32 y Result [31:0] $end
    $var wire  2 0 ResultSrc [1:0] $end
    $var wire 32 - WD [31:0] $end
    $var wire  1 1 WE $end
    $var wire 32 z WIDTH [31:0] $end
    $var wire  1 ` clk $end
    $var wire  3 2 modeBU [2:0] $end
   $upscope $end
   $scope module instruction_memory $end
    $var wire 32 z ADDRESS_WIDTH [31:0] $end
    $var wire 32 z DATA_WIDTH [31:0] $end
    $var wire 32 % PC [31:0] $end
    $var wire 32 & instr [31:0] $end
   $upscope $end
   $scope module pc $end
    $var wire 32 3 ALUResult [31:0] $end
    $var wire 32 % PCF [31:0] $end
    $var wire 32 = PCPlus4F [31:0] $end
    $var wire  2 # PCSrc [1:0] $end
    $var wire 32 > PCTarget [31:0] $end
    $var wire 32 z WIDTH [31:0] $end
    $var wire  1 4 ZeroE $end
    $var wire  1 ` clk $end
    $var wire 32 ? out [31:0] $end
    $var wire  1 a rst $end
   $upscope $end
   $scope module regfile $end
    $var wire  5 ( AD1 [4:0] $end
    $var wire  5 ) AD2 [4:0] $end
    $var wire  5 * AD3 [4:0] $end
    $var wire 32 | ADDRESS_WIDTH [31:0] $end
    $var wire 32 z DATA_WIDTH [31:0] $end
    $var wire 32 , RD1 [31:0] $end
    $var wire 32 - RD2 [31:0] $end
    $var wire 32 y WD3 [31:0] $end
    $var wire  1 + WE3 $end
    $var wire 32 b a0 [31:0] $end
    $var wire 32 c a1 [31:0] $end
    $var wire 32 l a10 [31:0] $end
    $var wire 32 m a11 [31:0] $end
    $var wire 32 n a12 [31:0] $end
    $var wire 32 o a13 [31:0] $end
    $var wire 32 p a14 [31:0] $end
    $var wire 32 q a15 [31:0] $end
    $var wire 32 r a16 [31:0] $end
    $var wire 32 s a17 [31:0] $end
    $var wire 32 t a18 [31:0] $end
    $var wire 32 u a19 [31:0] $end
    $var wire 32 d a2 [31:0] $end
    $var wire 32 v a20 [31:0] $end
    $var wire 32 e a3 [31:0] $end
    $var wire 32 f a4 [31:0] $end
    $var wire 32 g a5 [31:0] $end
    $var wire 32 h a6 [31:0] $end
    $var wire 32 i a7 [31:0] $end
    $var wire 32 j a8 [31:0] $end
    $var wire 32 k a9 [31:0] $end
    $var wire  1 ` clk $end
    $var wire 32 @ registerfile_array[0] [31:0] $end
    $var wire 32 J registerfile_array[10] [31:0] $end
    $var wire 32 K registerfile_array[11] [31:0] $end
    $var wire 32 L registerfile_array[12] [31:0] $end
    $var wire 32 M registerfile_array[13] [31:0] $end
    $var wire 32 N registerfile_array[14] [31:0] $end
    $var wire 32 O registerfile_array[15] [31:0] $end
    $var wire 32 P registerfile_array[16] [31:0] $end
    $var wire 32 Q registerfile_array[17] [31:0] $end
    $var wire 32 R registerfile_array[18] [31:0] $end
    $var wire 32 S registerfile_array[19] [31:0] $end
    $var wire 32 A registerfile_array[1] [31:0] $end
    $var wire 32 T registerfile_array[20] [31:0] $end
    $var wire 32 U registerfile_array[21] [31:0] $end
    $var wire 32 V registerfile_array[22] [31:0] $end
    $var wire 32 W registerfile_array[23] [31:0] $end
    $var wire 32 X registerfile_array[24] [31:0] $end
    $var wire 32 Y registerfile_array[25] [31:0] $end
    $var wire 32 Z registerfile_array[26] [31:0] $end
    $var wire 32 [ registerfile_array[27] [31:0] $end
    $var wire 32 \ registerfile_array[28] [31:0] $end
    $var wire 32 ] registerfile_array[29] [31:0] $end
    $var wire 32 B registerfile_array[2] [31:0] $end
    $var wire 32 ^ registerfile_array[30] [31:0] $end
    $var wire 32 _ registerfile_array[31] [31:0] $end
    $var wire 32 C registerfile_array[3] [31:0] $end
    $var wire 32 D registerfile_array[4] [31:0] $end
    $var wire 32 E registerfile_array[5] [31:0] $end
    $var wire 32 F registerfile_array[6] [31:0] $end
    $var wire 32 G registerfile_array[7] [31:0] $end
    $var wire 32 H registerfile_array[8] [31:0] $end
    $var wire 32 I registerfile_array[9] [31:0] $end
    $var wire 32 w t1 [31:0] $end
   $upscope $end
   $scope module regfile_mux $end
    $var wire 32 z WIDTH [31:0] $end
    $var wire 32 3 in0 [31:0] $end
    $var wire 32 x in1 [31:0] $end
    $var wire 32 = in2 [31:0] $end
    $var wire 32 y out [31:0] $end
    $var wire  2 0 sel [1:0] $end
   $upscope $end
   $scope module sign_extend $end
    $var wire 32 z DATA_WIDTH [31:0] $end
    $var wire 32 $ ImmExt [31:0] $end
    $var wire 32 & ImmInput [31:0] $end
    $var wire  3 ' ImmSrc [2:0] $end
   $upscope $end
  $upscope $end
 $upscope $end
$enddefinitions $end


#0
b00 #
b00000000000000000000000000000000 $
b00000000000000000000000000000000 %
b00000000000000000000000000000000 &
b000 '
b00000 (
b00000 )
b00000 *
0+
b00000000000000000000000000000000 ,
b00000000000000000000000000000000 -
b0000 .
1/
b00 0
01
b000 2
b00000000000000000000000000000000 3
04
b00000000000000000000000000000000 5
b0000000 6
b000 7
08
b00 9
0:
0;
0<
b00000000000000000000000000000100 =
b00000000000000000000000000000000 >
b00000000000000000000000000000100 ?
b00000000000000000000000000000000 @
b00000000000000000000000000000000 A
b00000000000000000000000000000000 B
b00000000000000000000000000000000 C
b00000000000000000000000000000000 D
b00000000000000000000000000000000 E
b00000000000000000000000000000000 F
b00000000000000000000000000000000 G
b00000000000000000000000000000000 H
b00000000000000000000000000000000 I
b00000000000000000000000000000000 J
b00000000000000000000000000000000 K
b00000000000000000000000000000000 L
b00000000000000000000000000000000 M
b00000000000000000000000000000000 N
b00000000000000000000000000000000 O
b00000000000000000000000000000000 P
b00000000000000000000000000000000 Q
b00000000000000000000000000000000 R
b00000000000000000000000000000000 S
b00000000000000000000000000000000 T
b00000000000000000000000000000000 U
b00000000000000000000000000000000 V
b00000000000000000000000000000000 W
b00000000000000000000000000000000 X
b00000000000000000000000000000000 Y
b00000000000000000000000000000000 Z
b00000000000000000000000000000000 [
b00000000000000000000000000000000 \
b00000000000000000000000000000000 ]
b00000000000000000000000000000000 ^
b00000000000000000000000000000000 _
1`
0a
b00000000000000000000000000000000 b
b00000000000000000000000000000000 c
b00000000000000000000000000000000 d
b00000000000000000000000000000000 e
b00000000000000000000000000000000 f
b00000000000000000000000000000000 g
b00000000000000000000000000000000 h
b00000000000000000000000000000000 i
b00000000000000000000000000000000 j
b00000000000000000000000000000000 k
b00000000000000000000000000000000 l
b00000000000000000000000000000000 m
b00000000000000000000000000000000 n
b00000000000000000000000000000000 o
b00000000000000000000000000000000 p
b00000000000000000000000000000000 q
b00000000000000000000000000000000 r
b00000000000000000000000000000000 s
b00000000000000000000000000000000 t
b00000000000000000000000000000000 u
b00000000000000000000000000000000 v
b00000000000000000000000000000000 w
b00000000000000000000000000000000 x
b00000000000000000000000000000000 y
b00000000000000000000000000100000 z
b00000000000000000000000000000100 {
b00000000000000000000000000000101 |
#1
b01 #
b00000000000000000000000000001000 $
b00000001000000000000000011101111 &
b100 '
b10000 )
b00001 *
1+
b1111 .
0/
b10 0
14
b1101111 6
b11 9
1<
b00000000000000000000000000001000 >
b00000000000000000000000000001000 ?
0`
b00000000000000000000000000000100 y
#2
b00000000000000000000000000101000 $
b00000000000000000000000000001000 %
b00000101000000000000000011101111 &
b00000000000000000000000000001100 =
b00000000000000000000000000110000 >
b00000000000000000000000000110000 ?
b00000000000000000000000000000100 A
1`
#3
0`
#4
b00 #
b00000000000000000000000011001000 $
b00000000000000000000000000110000 %
b00001100100000000000011100010011 &
b000 '
b01000 )
b01110 *
b0000 .
1/
b00 0
b00000000000000000000000011001000 3
04
b00000000000000000000000011001000 5
b0010011 6
b10 9
0<
b00000000000000000000000000110100 =
b00000000000000000000000011111000 >
b00000000000000000000000000110100 ?
1`
b00000000000000000000000011001000 y
#5
0`
#6
b00000000000000000000000000000000 $
b00000000000000000000000000110100 %
b00000000110001011000011110110011 &
b111 '
b01011 (
b01100 )
b01111 *
0/
b00000000000000000000000000000000 3
b00000000000000000000000000000000 5
b0110011 6
1<
b00000000000000000000000000111000 =
b00000000000000000000000000110100 >
b00000000000000000000000000111000 ?
b00000000000000000000000011001000 N
1`
b00000000000000000000000011001000 f
b00000000000000000000000000000000 y
#7
0`
#8
b00000000000000000000000000111000 %
b00000000000001111100001010000011 &
b000 '
b01111 (
b00000 )
b00101 *
1/
b01 0
b101 2
b0000011 6
b100 7
b00 9
1;
0<
b00000000000000000000000000111100 =
b00000000000000000000000000111000 >
b00000000000000000000000000111100 ?
1`
#9
0`
#10
b00000000000000000000000000111100 %
b00000000110100101000100000110011 &
b111 '
b00101 (
b01101 )
b10000 *
0/
b00 0
b000 2
b0110011 6
b000 7
b10 9
0;
1<
b00000000000000000000000001000000 =
b00000000000000000000000000111100 >
b00000000000000000000000001000000 ?
1`
#11
0`
#12
b00000000000000000000000001000000 %
b00000000000010000100001100000011 &
b000 '
b10000 (
b00000 )
b00110 *
1/
b01 0
b101 2
b0000011 6
b100 7
b00 9
1;
0<
b00000000000000000000000001000100 =
b00000000000000000000000001000000 >
b00000000000000000000000001000100 ?
1`
#13
0`
#14
b00000000000000000000000000000001 $
b00000000000000000000000001000100 %
b00000000000100110000001100010011 &
b00110 (
b00001 )
b00000000000000000000000000000100 -
b00 0
b000 2
b00000000000000000000000000000001 3
b00000000000000000000000000000001 5
b0010011 6
b000 7
b10 9
0;
b00000000000000000000000001001000 =
b00000000000000000000000001000101 >
b00000000000000000000000001001000 ?
1`
b00000000000000000000000000000001 y
#15
0`
#16
b00000000000000000000000000000000 $
b00000000000000000000000001001000 %
b00000000011010000000000000100011 &
b001 '
b10000 (
b00110 )
b00000 *
0+
b00000000000000000000000000000001 -
11
b011 2
b00000000000000000000000000000000 3
b00000000000000000000000000000000 5
b0100011 6
b00 9
1:
1<
b00000000000000000000000001001100 =
b00000000000000000000000001001000 >
b00000000000000000000000001001100 ?
b00000000000000000000000000000001 F
1`
b00000000000000000000000000000000 y
#17
0`
#18
b00000000000000000000000000000001 $
b00000000000000000000000001001100 %
b00000000000101100000011000010011 &
b000 '
b01100 (
b00001 )
b01100 *
1+
b00000000000000000000000000000100 -
01
b000 2
b00000000000000000000000000000001 3
b00000000000000000000000000000001 5
b0010011 6
b10 9
0:
0<
b00000000000000000000000001010000 =
b00000000000000000000000001001101 >
b00000000000000000000000001010000 ?
1`
b00000000000000000000000000000001 y
#19
0`
#20
b10 #
b11111111111111111111111111100100 $
b00000000000000000000000001010000 %
b11111110111000110001001011100011 &
b010 '
b00110 (
b01110 )
b00101 *
0+
b00000000000000000000000000000001 ,
b00000000000000000000000011001000 -
b1011 .
0/
14
b00000000000000000000000011001000 5
b1100011 6
b001 7
18
b01 9
1<
b00000000000000000000000001010100 =
b00000000000000000000000000110100 >
b00000000000000000000000000110100 ?
b00000000000000000000000000000001 L
1`
b00000000000000000000000000000001 d
#21
0`
#22
b00 #
b00000000000000000000000000000000 $
b00000000000000000000000000110100 %
b00000000110001011000011110110011 &
b111 '
b01011 (
b01100 )
b01111 *
1+
b00000000000000000000000000000000 ,
b00000000000000000000000000000001 -
b0000 .
04
b00000000000000000000000000000001 5
b0110011 6
b000 7
08
b10 9
b00000000000000000000000000111000 =
b00000000000000000000000000111000 ?
1`
#23
0`
#24
b00000000000000000000000000111000 %
b00000000000001111100001010000011 &
b000 '
b01111 (
b00000 )
b00101 *
b00000000000000000000000000000001 ,
b00000000000000000000000000000000 -
1/
b01 0
b101 2
b00000000000000000000000000000000 5
b0000011 6
b100 7
b00 9
1;
0<
b00000000000000000000000000111100 =
b00000000000000000000000000111000 >
b00000000000000000000000000111100 ?
b00000000000000000000000000000001 O
1`
b00000000000000000000000000000001 g
b00000000000000000000000000000001 x
#25
0`
#26
b00000000000000000000000000111100 %
b00000000110100101000100000110011 &
b111 '
b00101 (
b01101 )
b10000 *
0/
b00 0
b000 2
b0110011 6
b000 7
b10 9
0;
1<
b00000000000000000000000001000000 =
b00000000000000000000000000111100 >
b00000000000000000000000001000000 ?
b00000000000000000000000000000001 E
1`
#27
0`
#28
b00000000000000000000000001000000 %
b00000000000010000100001100000011 &
b000 '
b10000 (
b00000 )
b00110 *
1/
b01 0
b101 2
b0000011 6
b100 7
b00 9
1;
0<
b00000000000000000000000001000100 =
b00000000000000000000000001000000 >
b00000000000000000000000001000100 ?
b00000000000000000000000000000001 P
1`
b00000000000000000000000000000001 h
#29
0`
#30
b00000000000000000000000000000001 $
b00000000000000000000000001000100 %
b00000000000100110000001100010011 &
b00110 (
b00001 )
b00000000000000000000000000000100 -
b00 0
b000 2
b00000000000000000000000000000010 3
b00000000000000000000000000000001 5
b0010011 6
b000 7
b10 9
0;
b00000000000000000000000001001000 =
b00000000000000000000000001000101 >
b00000000000000000000000001001000 ?
1`
b00000000000000000000000000000010 y
#31
0`
#32
b00000000000000000000000000000000 $
b00000000000000000000000001001000 %
b00000000011010000000000000100011 &
b001 '
b10000 (
b00110 )
b00000 *
0+
b00000000000000000000000000000010 -
11
b011 2
b00000000000000000000000000000001 3
b00000000000000000000000000000000 5
b0100011 6
b00 9
1:
1<
b00000000000000000000000001001100 =
b00000000000000000000000001001000 >
b00000000000000000000000001001100 ?
b00000000000000000000000000000010 F
1`
b00000000000000000000000000000001 y
#33
0`
#34
b00000000000000000000000000000001 $
b00000000000000000000000001001100 %
b00000000000101100000011000010011 &
b000 '
b01100 (
b00001 )
b01100 *
1+
b00000000000000000000000000000100 -
01
b000 2
b00000000000000000000000000000010 3
b00000000000000000000000000000001 5
b0010011 6
b10 9
0:
0<
b00000000000000000000000001010000 =
b00000000000000000000000001001101 >
b00000000000000000000000001010000 ?
1`
b00000000000000000000000000000010 y
#35
0`
#36
b10 #
b11111111111111111111111111100100 $
b00000000000000000000000001010000 %
b11111110111000110001001011100011 &
b010 '
b00110 (
b01110 )
b00101 *
0+
b00000000000000000000000000000010 ,
b00000000000000000000000011001000 -
b1011 .
0/
b00000000000000000000000000000001 3
14
b00000000000000000000000011001000 5
b1100011 6
b001 7
18
b01 9
1<
b00000000000000000000000001010100 =
b00000000000000000000000000110100 >
b00000000000000000000000000110100 ?
b00000000000000000000000000000010 L
1`
b00000000000000000000000000000010 d
b00000000000000000000000000000001 y
#37
0`
#38
b00 #
b00000000000000000000000000000000 $
b00000000000000000000000000110100 %
b00000000110001011000011110110011 &
b111 '
b01011 (
b01100 )
b01111 *
1+
b00000000000000000000000000000000 ,
b00000000000000000000000000000010 -
b0000 .
b00000000000000000000000000000010 3
04
b00000000000000000000000000000010 5
b0110011 6
b000 7
08
b10 9
b00000000000000000000000000111000 =
b00000000000000000000000000111000 ?
1`
b00000000000000000000000000000010 y
#39
0`
#40
b00000000000000000000000000111000 %
b00000000000001111100001010000011 &
b000 '
b01111 (
b00000 )
b00101 *
b00000000000000000000000000000010 ,
b00000000000000000000000000000000 -
1/
b01 0
b101 2
b00000000000000000000000000000000 5
b0000011 6
b100 7
b00 9
1;
0<
b00000000000000000000000000111100 =
b00000000000000000000000000111000 >
b00000000000000000000000000111100 ?
b00000000000000000000000000000010 O
1`
b00000000000000000000000000000010 g
b00000000000000000000000000000010 x
#41
0`
#42
b00000000000000000000000000111100 %
b00000000110100101000100000110011 &
b111 '
b00101 (
b01101 )
b10000 *
0/
b00 0
b000 2
b0110011 6
b000 7
b10 9
0;
1<
b00000000000000000000000001000000 =
b00000000000000000000000000111100 >
b00000000000000000000000001000000 ?
b00000000000000000000000000000010 E
1`
#43
0`
#44
b00000000000000000000000001000000 %
b00000000000010000100001100000011 &
b000 '
b10000 (
b00000 )
b00110 *
1/
b01 0
b101 2
b0000011 6
b100 7
b00 9
1;
0<
b00000000000000000000000001000100 =
b00000000000000000000000001000000 >
b00000000000000000000000001000100 ?
b00000000000000000000000000000010 P
1`
b00000000000000000000000000000010 h
#45
0`
#46
b00000000000000000000000000000001 $
b00000000000000000000000001000100 %
b00000000000100110000001100010011 &
b00110 (
b00001 )
b00000000000000000000000000000100 -
b00 0
b000 2
b00000000000000000000000000000011 3
b00000000000000000000000000000001 5
b0010011 6
b000 7
b10 9
0;
b00000000000000000000000001001000 =
b00000000000000000000000001000101 >
b00000000000000000000000001001000 ?
1`
b00000000000000000000000000000011 y
#47
0`
#48
b00000000000000000000000000000000 $
b00000000000000000000000001001000 %
b00000000011010000000000000100011 &
b001 '
b10000 (
b00110 )
b00000 *
0+
b00000000000000000000000000000011 -
11
b011 2
b00000000000000000000000000000010 3
b00000000000000000000000000000000 5
b0100011 6
b00 9
1:
1<
b00000000000000000000000001001100 =
b00000000000000000000000001001000 >
b00000000000000000000000001001100 ?
b00000000000000000000000000000011 F
1`
b00000000000000000000000000000010 y
#49
0`
#50
b00000000000000000000000000000001 $
b00000000000000000000000001001100 %
b00000000000101100000011000010011 &
b000 '
b01100 (
b00001 )
b01100 *
1+
b00000000000000000000000000000100 -
01
b000 2
b00000000000000000000000000000011 3
b00000000000000000000000000000001 5
b0010011 6
b10 9
0:
0<
b00000000000000000000000001010000 =
b00000000000000000000000001001101 >
b00000000000000000000000001010000 ?
1`
b00000000000000000000000000000011 y
#51
0`
#52
b10 #
b11111111111111111111111111100100 $
b00000000000000000000000001010000 %
b11111110111000110001001011100011 &
b010 '
b00110 (
b01110 )
b00101 *
0+
b00000000000000000000000000000011 ,
b00000000000000000000000011001000 -
b1011 .
0/
b00000000000000000000000000000001 3
14
b00000000000000000000000011001000 5
b1100011 6
b001 7
18
b01 9
1<
b00000000000000000000000001010100 =
b00000000000000000000000000110100 >
b00000000000000000000000000110100 ?
b00000000000000000000000000000011 L
1`
b00000000000000000000000000000011 d
b00000000000000000000000000000001 y
#53
0`
#54
b00 #
b00000000000000000000000000000000 $
b00000000000000000000000000110100 %
b00000000110001011000011110110011 &
b111 '
b01011 (
b01100 )
b01111 *
1+
b00000000000000000000000000000000 ,
b00000000000000000000000000000011 -
b0000 .
b00000000000000000000000000000011 3
04
b00000000000000000000000000000011 5
b0110011 6
b000 7
08
b10 9
b00000000000000000000000000111000 =
b00000000000000000000000000111000 ?
1`
b00000000000000000000000000000011 y
#55
0`
#56
b00000000000000000000000000111000 %
b00000000000001111100001010000011 &
b000 '
b01111 (
b00000 )
b00101 *
b00000000000000000000000000000011 ,
b00000000000000000000000000000000 -
1/
b01 0
b101 2
b00000000000000000000000000000000 5
b0000011 6
b100 7
b00 9
1;
0<
b00000000000000000000000000111100 =
b00000000000000000000000000111000 >
b00000000000000000000000000111100 ?
b00000000000000000000000000000011 O
1`
b00000000000000000000000000000011 g
b00000000000000000000000000000011 x
#57
0`
#58
b00000000000000000000000000111100 %
b00000000110100101000100000110011 &
b111 '
b00101 (
b01101 )
b10000 *
0/
b00 0
b000 2
b0110011 6
b000 7
b10 9
0;
1<
b00000000000000000000000001000000 =
b00000000000000000000000000111100 >
b00000000000000000000000001000000 ?
b00000000000000000000000000000011 E
1`
#59
0`
#60
b00000000000000000000000001000000 %
b00000000000010000100001100000011 &
b000 '
b10000 (
b00000 )
b00110 *
1/
b01 0
b101 2
b0000011 6
b100 7
b00 9
1;
0<
b00000000000000000000000001000100 =
b00000000000000000000000001000000 >
b00000000000000000000000001000100 ?
b00000000000000000000000000000011 P
1`
b00000000000000000000000000000011 h
#61
0`
#62
b00000000000000000000000000000001 $
b00000000000000000000000001000100 %
b00000000000100110000001100010011 &
b00110 (
b00001 )
b00000000000000000000000000000100 -
b00 0
b000 2
b00000000000000000000000000000100 3
b00000000000000000000000000000001 5
b0010011 6
b000 7
b10 9
0;
b00000000000000000000000001001000 =
b00000000000000000000000001000101 >
b00000000000000000000000001001000 ?
1`
b00000000000000000000000000000100 y
#63
0`
#64
b00000000000000000000000000000000 $
b00000000000000000000000001001000 %
b00000000011010000000000000100011 &
b001 '
b10000 (
b00110 )
b00000 *
0+
11
b011 2
b00000000000000000000000000000011 3
b00000000000000000000000000000000 5
b0100011 6
b00 9
1:
1<
b00000000000000000000000001001100 =
b00000000000000000000000001001000 >
b00000000000000000000000001001100 ?
b00000000000000000000000000000100 F
1`
b00000000000000000000000000000011 y
#65
0`
#66
b00000000000000000000000000000001 $
b00000000000000000000000001001100 %
b00000000000101100000011000010011 &
b000 '
b01100 (
b00001 )
b01100 *
1+
01
b000 2
b00000000000000000000000000000100 3
b00000000000000000000000000000001 5
b0010011 6
b10 9
0:
0<
b00000000000000000000000001010000 =
b00000000000000000000000001001101 >
b00000000000000000000000001010000 ?
1`
b00000000000000000000000000000100 y
#67
0`
#68
b10 #
b11111111111111111111111111100100 $
b00000000000000000000000001010000 %
b11111110111000110001001011100011 &
b010 '
b00110 (
b01110 )
b00101 *
0+
b00000000000000000000000000000100 ,
b00000000000000000000000011001000 -
b1011 .
0/
b00000000000000000000000000000001 3
14
b00000000000000000000000011001000 5
b1100011 6
b001 7
18
b01 9
1<
b00000000000000000000000001010100 =
b00000000000000000000000000110100 >
b00000000000000000000000000110100 ?
b00000000000000000000000000000100 L
1`
b00000000000000000000000000000100 d
b00000000000000000000000000000001 y
#69
0`
#70
b00 #
b00000000000000000000000000000000 $
b00000000000000000000000000110100 %
b00000000110001011000011110110011 &
b111 '
b01011 (
b01100 )
b01111 *
1+
b00000000000000000000000000000000 ,
b00000000000000000000000000000100 -
b0000 .
b00000000000000000000000000000100 3
04
b00000000000000000000000000000100 5
b0110011 6
b000 7
08
b10 9
b00000000000000000000000000111000 =
b00000000000000000000000000111000 ?
1`
b00000000000000000000000000000100 y
#71
0`
#72
b00000000000000000000000000111000 %
b00000000000001111100001010000011 &
b000 '
b01111 (
b00000 )
b00101 *
b00000000000000000000000000000100 ,
b00000000000000000000000000000000 -
1/
b01 0
b101 2
b00000000000000000000000000000000 5
b0000011 6
b100 7
b00 9
1;
0<
b00000000000000000000000000111100 =
b00000000000000000000000000111000 >
b00000000000000000000000000111100 ?
b00000000000000000000000000000100 O
1`
b00000000000000000000000000000100 g
b00000000000000000000000000000000 x
b00000000000000000000000000000000 y
#73
0`
#74
b00000000000000000000000000111100 %
b00000000110100101000100000110011 &
b111 '
b00101 (
b01101 )
b10000 *
b00000000000000000000000000000000 ,
0/
b00 0
b000 2
b00000000000000000000000000000000 3
b0110011 6
b000 7
b10 9
0;
1<
b00000000000000000000000001000000 =
b00000000000000000000000000111100 >
b00000000000000000000000001000000 ?
b00000000000000000000000000000000 E
1`
#75
0`
#76
b00000000000000000000000001000000 %
b00000000000010000100001100000011 &
b000 '
b10000 (
b00000 )
b00110 *
1/
b01 0
b101 2
b0000011 6
b100 7
b00 9
1;
0<
b00000000000000000000000001000100 =
b00000000000000000000000001000000 >
b00000000000000000000000001000100 ?
b00000000000000000000000000000000 P
1`
b00000000000000000000000000000000 h
b00000000000000000000000000000100 x
b00000000000000000000000000000100 y
#77
0`
#78
b00000000000000000000000000000001 $
b00000000000000000000000001000100 %
b00000000000100110000001100010011 &
b00110 (
b00001 )
b00000000000000000000000000000100 ,
b00000000000000000000000000000100 -
b00 0
b000 2
b00000000000000000000000000000101 3
b00000000000000000000000000000001 5
b0010011 6
b000 7
b10 9
0;
b00000000000000000000000001001000 =
b00000000000000000000000001000101 >
b00000000000000000000000001001000 ?
1`
b00000000000000000000000000000101 y
#79
0`
#80
b00000000000000000000000000000000 $
b00000000000000000000000001001000 %
b00000000011010000000000000100011 &
b001 '
b10000 (
b00110 )
b00000 *
0+
b00000000000000000000000000000000 ,
b00000000000000000000000000000101 -
11
b011 2
b00000000000000000000000000000000 3
b00000000000000000000000000000000 5
b0100011 6
b00 9
1:
1<
b00000000000000000000000001001100 =
b00000000000000000000000001001000 >
b00000000000000000000000001001100 ?
b00000000000000000000000000000101 F
1`
b00000000000000000000000000000000 y
#81
0`
#82
b00000000000000000000000000000001 $
b00000000000000000000000001001100 %
b00000000000101100000011000010011 &
b000 '
b01100 (
b00001 )
b01100 *
1+
b00000000000000000000000000000100 ,
b00000000000000000000000000000100 -
01
b000 2
b00000000000000000000000000000101 3
b00000000000000000000000000000001 5
b0010011 6
b10 9
0:
0<
b00000000000000000000000001010000 =
b00000000000000000000000001001101 >
b00000000000000000000000001010000 ?
1`
b00000000000000000000000000000101 y
#83
0`
#84
b10 #
b11111111111111111111111111100100 $
b00000000000000000000000001010000 %
b11111110111000110001001011100011 &
b010 '
b00110 (
b01110 )
b00101 *
0+
b00000000000000000000000000000101 ,
b00000000000000000000000011001000 -
b1011 .
0/
b00000000000000000000000000000001 3
14
b00000000000000000000000011001000 5
b1100011 6
b001 7
18
b01 9
1<
b00000000000000000000000001010100 =
b00000000000000000000000000110100 >
b00000000000000000000000000110100 ?
b00000000000000000000000000000101 L
1`
b00000000000000000000000000000101 d
b00000000000000000000000000000001 y
#85
0`
#86
b00 #
b00000000000000000000000000000000 $
b00000000000000000000000000110100 %
b00000000110001011000011110110011 &
b111 '
b01011 (
b01100 )
b01111 *
1+
b00000000000000000000000000000000 ,
b00000000000000000000000000000101 -
b0000 .
b00000000000000000000000000000101 3
04
b00000000000000000000000000000101 5
b0110011 6
b000 7
08
b10 9
b00000000000000000000000000111000 =
b00000000000000000000000000111000 ?
1`
b00000000000000000000000000000101 y
#87
0`
