rtl_single_cycle/VCD/F1.vcd
$version Generated by VerilatedVcd $end
$date Fri Dec  6 16:12:11 2024 $end
$timescale 1ps $end

 $scope module TOP $end
  $var wire 32 b a0 [31:0] $end
  $var wire 32 c a1 [31:0] $end
  $var wire 32 l a10 [31:0] $end
  $var wire 32 m a11 [31:0] $end
  $var wire 32 n a12 [31:0] $end
  $var wire 32 o a13 [31:0] $end
  $var wire 32 p a14 [31:0] $end
  $var wire 32 q a15 [31:0] $end
  $var wire 32 r a16 [31:0] $end
  $var wire 32 s a17 [31:0] $end
  $var wire 32 t a18 [31:0] $end
  $var wire 32 u a19 [31:0] $end
  $var wire 32 d a2 [31:0] $end
  $var wire 32 v a20 [31:0] $end
  $var wire 32 e a3 [31:0] $end
  $var wire 32 f a4 [31:0] $end
  $var wire 32 g a5 [31:0] $end
  $var wire 32 h a6 [31:0] $end
  $var wire 32 i a7 [31:0] $end
  $var wire 32 j a8 [31:0] $end
  $var wire 32 k a9 [31:0] $end
  $var wire  1 ` clk $end
  $var wire  1 a rst $end
  $var wire 32 w t1 [31:0] $end
  $scope module top $end
   $var wire  5 ( A1 [4:0] $end
   $var wire  5 ) A2 [4:0] $end
   $var wire  5 * A3 [4:0] $end
   $var wire 32 3 ALUResult [31:0] $end
   $var wire  1 / ALUSrc $end
   $var wire  4 . ALUctrl [3:0] $end
   $var wire 32 $ ExtImm [31:0] $end
   $var wire  3 ' ImmSrc [2:0] $end
   $var wire  1 1 MemWrite $end
   $var wire 32 % PC [31:0] $end
   $var wire  2 # PCSrc [1:0] $end
   $var wire 32 x RD [31:0] $end
   $var wire 32 , RD1 [31:0] $end
   $var wire 32 - RD2 [31:0] $end
   $var wire  1 + RegWrite $end
   $var wire 32 y Result [31:0] $end
   $var wire  2 0 ResultSrc [1:0] $end
   $var wire 32 , SrcA [31:0] $end
   $var wire 32 5 SrcB [31:0] $end
   $var wire 32 z WIDTH [31:0] $end
   $var wire  1 4 Zero $end
   $var wire 32 b a0 [31:0] $end
   $var wire 32 c a1 [31:0] $end
   $var wire 32 l a10 [31:0] $end
   $var wire 32 m a11 [31:0] $end
   $var wire 32 n a12 [31:0] $end
   $var wire 32 o a13 [31:0] $end
   $var wire 32 p a14 [31:0] $end
   $var wire 32 q a15 [31:0] $end
   $var wire 32 r a16 [31:0] $end
   $var wire 32 s a17 [31:0] $end
   $var wire 32 t a18 [31:0] $end
   $var wire 32 u a19 [31:0] $end
   $var wire 32 d a2 [31:0] $end
   $var wire 32 v a20 [31:0] $end
   $var wire 32 e a3 [31:0] $end
   $var wire 32 f a4 [31:0] $end
   $var wire 32 g a5 [31:0] $end
   $var wire 32 h a6 [31:0] $end
   $var wire 32 i a7 [31:0] $end
   $var wire 32 j a8 [31:0] $end
   $var wire 32 k a9 [31:0] $end
   $var wire 32 % addr [31:0] $end
   $var wire  1 ` clk $end
   $var wire 32 & instr [31:0] $end
   $var wire  3 2 modeBU [2:0] $end
   $var wire  1 a rst $end
   $var wire 32 w t1 [31:0] $end
   $scope module alu $end
    $var wire 32 3 ALUResult [31:0] $end
    $var wire  4 . ALUctrl [3:0] $end
    $var wire 32 { CONTROL_WIDTH [31:0] $end
    $var wire 32 z DATA_WIDTH [31:0] $end
    $var wire 32 , SrcA [31:0] $end
    $var wire 32 5 SrcB [31:0] $end
    $var wire  1 4 Zero $end
   $upscope $end
   $scope module control_unit $end
    $var wire  4 . ALUCtrl [3:0] $end
    $var wire  2 9 ALUOp [1:0] $end
    $var wire  1 / ALUSrc $end
    $var wire 32 z DATA_WIDTH [31:0] $end
    $var wire  3 ' ImmSrc [2:0] $end
    $var wire 32 & Instr [31:0] $end
    $var wire  1 ; Load $end
    $var wire  1 1 MemWrite $end
    $var wire  2 # PCSrc [1:0] $end
    $var wire  1 + RegWrite $end
    $var wire  2 0 ResultSrc [1:0] $end
    $var wire  1 : Store $end
    $var wire  3 7 funct3 [14:12] $end
    $var wire  1 8 funct7 $end
    $var wire  3 2 modeBU [2:0] $end
    $var wire  7 6 op [6:0] $end
    $scope module alu_decoder $end
     $var wire  4 . ALUCtrl [3:0] $end
     $var wire  2 9 ALUOp [1:0] $end
     $var wire  3 7 funct3 [2:0] $end
     $var wire  1 8 funct7 $end
     $var wire  1 < op $end
    $upscope $end
   $upscope $end
   $scope module data_memory $end
    $var wire 32 3 A [31:0] $end
    $var wire 32 x RD [31:0] $end
    $var wire 32 y Result [31:0] $end
    $var wire  2 0 ResultSrc [1:0] $end
    $var wire 32 - WD [31:0] $end
    $var wire  1 1 WE $end
    $var wire 32 z WIDTH [31:0] $end
    $var wire  1 ` clk $end
    $var wire  3 2 modeBU [2:0] $end
   $upscope $end
   $scope module instruction_memory $end
    $var wire 32 z ADDRESS_WIDTH [31:0] $end
    $var wire 32 z DATA_WIDTH [31:0] $end
    $var wire 32 % PC [31:0] $end
    $var wire 32 & instr [31:0] $end
   $upscope $end
   $scope module pc $end
    $var wire 32 3 ALUResult [31:0] $end
    $var wire 32 % PCF [31:0] $end
    $var wire 32 = PCPlus4F [31:0] $end
    $var wire  2 # PCSrc [1:0] $end
    $var wire 32 > PCTarget [31:0] $end
    $var wire 32 z WIDTH [31:0] $end
    $var wire  1 4 ZeroE $end
    $var wire  1 ` clk $end
    $var wire 32 ? out [31:0] $end
    $var wire  1 a rst $end
   $upscope $end
   $scope module regfile $end
    $var wire  5 ( AD1 [4:0] $end
    $var wire  5 ) AD2 [4:0] $end
    $var wire  5 * AD3 [4:0] $end
    $var wire 32 | ADDRESS_WIDTH [31:0] $end
    $var wire 32 z DATA_WIDTH [31:0] $end
    $var wire 32 , RD1 [31:0] $end
    $var wire 32 - RD2 [31:0] $end
    $var wire 32 y WD3 [31:0] $end
    $var wire  1 + WE3 $end
    $var wire 32 b a0 [31:0] $end
    $var wire 32 c a1 [31:0] $end
    $var wire 32 l a10 [31:0] $end
    $var wire 32 m a11 [31:0] $end
    $var wire 32 n a12 [31:0] $end
    $var wire 32 o a13 [31:0] $end
    $var wire 32 p a14 [31:0] $end
    $var wire 32 q a15 [31:0] $end
    $var wire 32 r a16 [31:0] $end
    $var wire 32 s a17 [31:0] $end
    $var wire 32 t a18 [31:0] $end
    $var wire 32 u a19 [31:0] $end
    $var wire 32 d a2 [31:0] $end
    $var wire 32 v a20 [31:0] $end
    $var wire 32 e a3 [31:0] $end
    $var wire 32 f a4 [31:0] $end
    $var wire 32 g a5 [31:0] $end
    $var wire 32 h a6 [31:0] $end
    $var wire 32 i a7 [31:0] $end
    $var wire 32 j a8 [31:0] $end
    $var wire 32 k a9 [31:0] $end
    $var wire  1 ` clk $end
    $var wire 32 @ registerfile_array[0] [31:0] $end
    $var wire 32 J registerfile_array[10] [31:0] $end
    $var wire 32 K registerfile_array[11] [31:0] $end
    $var wire 32 L registerfile_array[12] [31:0] $end
    $var wire 32 M registerfile_array[13] [31:0] $end
    $var wire 32 N registerfile_array[14] [31:0] $end
    $var wire 32 O registerfile_array[15] [31:0] $end
    $var wire 32 P registerfile_array[16] [31:0] $end
    $var wire 32 Q registerfile_array[17] [31:0] $end
    $var wire 32 R registerfile_array[18] [31:0] $end
    $var wire 32 S registerfile_array[19] [31:0] $end
    $var wire 32 A registerfile_array[1] [31:0] $end
    $var wire 32 T registerfile_array[20] [31:0] $end
    $var wire 32 U registerfile_array[21] [31:0] $end
    $var wire 32 V registerfile_array[22] [31:0] $end
    $var wire 32 W registerfile_array[23] [31:0] $end
    $var wire 32 X registerfile_array[24] [31:0] $end
    $var wire 32 Y registerfile_array[25] [31:0] $end
    $var wire 32 Z registerfile_array[26] [31:0] $end
    $var wire 32 [ registerfile_array[27] [31:0] $end
    $var wire 32 \ registerfile_array[28] [31:0] $end
    $var wire 32 ] registerfile_array[29] [31:0] $end
    $var wire 32 B registerfile_array[2] [31:0] $end
    $var wire 32 ^ registerfile_array[30] [31:0] $end
    $var wire 32 _ registerfile_array[31] [31:0] $end
    $var wire 32 C registerfile_array[3] [31:0] $end
    $var wire 32 D registerfile_array[4] [31:0] $end
    $var wire 32 E registerfile_array[5] [31:0] $end
    $var wire 32 F registerfile_array[6] [31:0] $end
    $var wire 32 G registerfile_array[7] [31:0] $end
    $var wire 32 H registerfile_array[8] [31:0] $end
    $var wire 32 I registerfile_array[9] [31:0] $end
    $var wire 32 w t1 [31:0] $end
   $upscope $end
   $scope module regfile_mux $end
    $var wire 32 z WIDTH [31:0] $end
    $var wire 32 3 in0 [31:0] $end
    $var wire 32 x in1 [31:0] $end
    $var wire 32 = in2 [31:0] $end
    $var wire 32 y out [31:0] $end
    $var wire  2 0 sel [1:0] $end
   $upscope $end
   $scope module sign_extend $end
    $var wire 32 z DATA_WIDTH [31:0] $end
    $var wire 32 $ ImmExt [31:0] $end
    $var wire 32 & ImmInput [31:0] $end
    $var wire  3 ' ImmSrc [2:0] $end
   $upscope $end
  $upscope $end
 $upscope $end
$enddefinitions $end


#0
b00 #
b00000000000000000000000000000000 $
b00000000000000000000000000000000 %
b00000000000000000000000000000000 &
b000 '
b00000 (
b00000 )
b00000 *
0+
b00000000000000000000000000000000 ,
b00000000000000000000000000000000 -
b0000 .
1/
b00 0
01
b000 2
b00000000000000000000000000000000 3
04
b00000000000000000000000000000000 5
b0000000 6
b000 7
08
b00 9
0:
0;
0<
b00000000000000000000000000000100 =
b00000000000000000000000000000000 >
b00000000000000000000000000000100 ?
b00000000000000000000000000000000 @
b00000000000000000000000000000000 A
b00000000000000000000000000000000 B
b00000000000000000000000000000000 C
b00000000000000000000000000000000 D
b00000000000000000000000000000000 E
b00000000000000000000000000000000 F
b00000000000000000000000000000000 G
b00000000000000000000000000000000 H
b00000000000000000000000000000000 I
b00000000000000000000000000000000 J
b00000000000000000000000000000000 K
b00000000000000000000000000000000 L
b00000000000000000000000000000000 M
b00000000000000000000000000000000 N
b00000000000000000000000000000000 O
b00000000000000000000000000000000 P
b00000000000000000000000000000000 Q
b00000000000000000000000000000000 R
b00000000000000000000000000000000 S
b00000000000000000000000000000000 T
b00000000000000000000000000000000 U
b00000000000000000000000000000000 V
b00000000000000000000000000000000 W
b00000000000000000000000000000000 X
b00000000000000000000000000000000 Y
b00000000000000000000000000000000 Z
b00000000000000000000000000000000 [
b00000000000000000000000000000000 \
b00000000000000000000000000000000 ]
b00000000000000000000000000000000 ^
b00000000000000000000000000000000 _
1`
0a
b00000000000000000000000000000000 b
b00000000000000000000000000000000 c
b00000000000000000000000000000000 d
b00000000000000000000000000000000 e
b00000000000000000000000000000000 f
b00000000000000000000000000000000 g
b00000000000000000000000000000000 h
b00000000000000000000000000000000 i
b00000000000000000000000000000000 j
b00000000000000000000000000000000 k
b00000000000000000000000000000000 l
b00000000000000000000000000000000 m
b00000000000000000000000000000000 n
b00000000000000000000000000000000 o
b00000000000000000000000000000000 p
b00000000000000000000000000000000 q
b00000000000000000000000000000000 r
b00000000000000000000000000000000 s
b00000000000000000000000000000000 t
b00000000000000000000000000000000 u
b00000000000000000000000000000000 v
b00000000000000000000000000000000 w
b00000000000000000000000000000000 x
b00000000000000000000000000000000 y
b00000000000000000000000000100000 z
b00000000000000000000000000000100 {
b00000000000000000000000000000101 |
#1
b00000000000000000000010100010011 &
b01010 *
1+
b0010011 6
b10 9
0`
#2
b00000000000000000000000011111111 $
b00000000000000000000000000000100 %
b00001111111100000000001100010011 &
b11111 )
b00110 *
b00000000000000000000000011111111 3
b00000000000000000000000011111111 5
b00000000000000000000000000001000 =
b00000000000000000000000100000011 >
b00000000000000000000000000001000 ?
1`
1a
b00000000000000000000000011111111 y
#3
0`
#4
b00000000000000000000000000000000 $
b00000000000000000000000000000000 %
b00000000000000000000010100010011 &
b00000 )
b01010 *
b00000000000000000000000000000000 3
b00000000000000000000000000000000 5
b00000000000000000000000000000100 =
b00000000000000000000000000000000 >
b00000000000000000000000000000100 ?
b00000000000000000000000011111111 F
1`
b00000000000000000000000000000000 y
#5
0`
#6
1`
#7
0`
#8
1`
0a
#9
0`
#10
b00000000000000000000000011111111 $
b00000000000000000000000000000100 %
b00001111111100000000001100010011 &
b11111 )
b00110 *
b00000000000000000000000011111111 3
b00000000000000000000000011111111 5
b00000000000000000000000000001000 =
b00000000000000000000000100000011 >
b00000000000000000000000000001000 ?
1`
b00000000000000000000000011111111 y
#11
0`
#12
b00000000000000000000000000000001 $
b00000000000000000000000000001000 %
b00000000000101010001010100010011 &
b01010 (
b00001 )
b01010 *
b0101 .
b00000000000000000000000000000000 3
b00000000000000000000000000000001 5
b001 7
b00000000000000000000000000001100 =
b00000000000000000000000000001001 >
b00000000000000000000000000001100 ?
1`
b00000000000000000000000000000000 y
#13
0`
#14
b00000000000000000000000000001100 %
b00000000000101010110010100010011 &
b0011 .
b00000000000000000000000000000001 3
b110 7
b00000000000000000000000000010000 =
b00000000000000000000000000001101 >
b00000000000000000000000000010000 ?
1`
b00000000000000000000000000000001 y
#15
0`
#16
b00000000000000000000000001100100 $
b00000000000000000000000000010000 %
b00000110010000000000001110010011 &
b00000 (
b00100 )
b00111 *
b0000 .
b00000000000000000000000001100100 3
b00000000000000000000000001100100 5
b000 7
b00000000000000000000000000010100 =
b00000000000000000000000001110100 >
b00000000000000000000000000010100 ?
b00000000000000000000000000000001 J
1`
b00000000000000000000000000000001 b
b00000000000000000000000001100100 y
#17
0`
#18
b11111111111111111111111111111111 $
b00000000000000000000000000010100 %
b11111111111100111000001110010011 &
b00111 (
b11111 )
b00000000000000000000000001100100 ,
b00000000000000000000000001100011 3
b11111111111111111111111111111111 5
18
b00000000000000000000000000011000 =
b00000000000000000000000000010011 >
b00000000000000000000000000011000 ?
b00000000000000000000000001100100 G
1`
b00000000000000000000000001100011 y
#19
0`
#20
b10 #
b11111111111111111111111111111100 $
b00000000000000000000000000011000 %
b11111110000000111001111011100011 &
b010 '
b00000 )
b11101 *
0+
b00000000000000000000000001100011 ,
b1011 .
0/
b00000000000000000000000000000000 3
14
b00000000000000000000000000000000 5
b1100011 6
b001 7
b01 9
1<
b00000000000000000000000000011100 =
b00000000000000000000000000010100 >
b00000000000000000000000000010100 ?
b00000000000000000000000001100011 G
1`
b00000000000000000000000000000000 y
#21
0`
#22
b00 #
b11111111111111111111111111111111 $
b00000000000000000000000000010100 %
b11111111111100111000001110010011 &
b000 '
b11111 )
b00111 *
1+
b0000 .
1/
b00000000000000000000000001100010 3
04
b11111111111111111111111111111111 5
b0010011 6
b000 7
b10 9
0<
b00000000000000000000000000011000 =
b00000000000000000000000000010011 >
b00000000000000000000000000011000 ?
1`
b00000000000000000000000001100010 y
#23
0`
#24
b10 #
b11111111111111111111111111111100 $
b00000000000000000000000000011000 %
b11111110000000111001111011100011 &
b010 '
b00000 )
b11101 *
0+
b00000000000000000000000001100010 ,
b1011 .
0/
b00000000000000000000000000000000 3
14
b00000000000000000000000000000000 5
b1100011 6
b001 7
b01 9
1<
b00000000000000000000000000011100 =
b00000000000000000000000000010100 >
b00000000000000000000000000010100 ?
b00000000000000000000000001100010 G
1`
b00000000000000000000000000000000 y
#25
0`
#26
b00 #
b11111111111111111111111111111111 $
b00000000000000000000000000010100 %
b11111111111100111000001110010011 &
b000 '
b11111 )
b00111 *
1+
b0000 .
1/
b00000000000000000000000001100001 3
04
b11111111111111111111111111111111 5
b0010011 6
b000 7
b10 9
0<
b00000000000000000000000000011000 =
b00000000000000000000000000010011 >
b00000000000000000000000000011000 ?
1`
b00000000000000000000000001100001 y
#27
0`
#28
b10 #
b11111111111111111111111111111100 $
b00000000000000000000000000011000 %
b11111110000000111001111011100011 &
b010 '
b00000 )
b11101 *
0+
b00000000000000000000000001100001 ,
b1011 .
0/
b00000000000000000000000000000000 3
14
b00000000000000000000000000000000 5
b1100011 6
b001 7
b01 9
1<
b00000000000000000000000000011100 =
b00000000000000000000000000010100 >
b00000000000000000000000000010100 ?
b00000000000000000000000001100001 G
1`
b00000000000000000000000000000000 y
#29
0`
#30
b00 #
b11111111111111111111111111111111 $
b00000000000000000000000000010100 %
b11111111111100111000001110010011 &
b000 '
b11111 )
b00111 *
1+
b0000 .
1/
b00000000000000000000000001100000 3
04
b11111111111111111111111111111111 5
b0010011 6
b000 7
b10 9
0<
b00000000000000000000000000011000 =
b00000000000000000000000000010011 >
b00000000000000000000000000011000 ?
1`
b00000000000000000000000001100000 y
#31
0`
#32
b10 #
b11111111111111111111111111111100 $
b00000000000000000000000000011000 %
b11111110000000111001111011100011 &
b010 '
b00000 )
b11101 *
0+
b00000000000000000000000001100000 ,
b1011 .
0/
b00000000000000000000000000000000 3
14
b00000000000000000000000000000000 5
b1100011 6
b001 7
b01 9
1<
b00000000000000000000000000011100 =
b00000000000000000000000000010100 >
b00000000000000000000000000010100 ?
b00000000000000000000000001100000 G
1`
b00000000000000000000000000000000 y
#33
0`
#34
b00 #
b11111111111111111111111111111111 $
b00000000000000000000000000010100 %
b11111111111100111000001110010011 &
b000 '
b11111 )
b00111 *
1+
b0000 .
1/
b00000000000000000000000001011111 3
04
b11111111111111111111111111111111 5
b0010011 6
b000 7
b10 9
0<
b00000000000000000000000000011000 =
b00000000000000000000000000010011 >
b00000000000000000000000000011000 ?
1`
b00000000000000000000000001011111 y
#35
0`
#36
b10 #
b11111111111111111111111111111100 $
b00000000000000000000000000011000 %
b11111110000000111001111011100011 &
b010 '
b00000 )
b11101 *
0+
b00000000000000000000000001011111 ,
b1011 .
0/
b00000000000000000000000000000000 3
14
b00000000000000000000000000000000 5
b1100011 6
b001 7
b01 9
1<
b00000000000000000000000000011100 =
b00000000000000000000000000010100 >
b00000000000000000000000000010100 ?
b00000000000000000000000001011111 G
1`
b00000000000000000000000000000000 y
#37
0`
#38
b00 #
b11111111111111111111111111111111 $
b00000000000000000000000000010100 %
b11111111111100111000001110010011 &
b000 '
b11111 )
b00111 *
1+
b0000 .
1/
b00000000000000000000000001011110 3
04
b11111111111111111111111111111111 5
b0010011 6
b000 7
b10 9
0<
b00000000000000000000000000011000 =
b00000000000000000000000000010011 >
b00000000000000000000000000011000 ?
1`
b00000000000000000000000001011110 y
#39
0`
#40
b10 #
b11111111111111111111111111111100 $
b00000000000000000000000000011000 %
b11111110000000111001111011100011 &
b010 '
b00000 )
b11101 *
0+
b00000000000000000000000001011110 ,
b1011 .
0/
b00000000000000000000000000000000 3
14
b00000000000000000000000000000000 5
b1100011 6
b001 7
b01 9
1<
b00000000000000000000000000011100 =
b00000000000000000000000000010100 >
b00000000000000000000000000010100 ?
b00000000000000000000000001011110 G
1`
b00000000000000000000000000000000 y
#41
0`
#42
b00 #
b11111111111111111111111111111111 $
b00000000000000000000000000010100 %
b11111111111100111000001110010011 &
b000 '
b11111 )
b00111 *
1+
b0000 .
1/
b00000000000000000000000001011101 3
04
b11111111111111111111111111111111 5
b0010011 6
b000 7
b10 9
0<
b00000000000000000000000000011000 =
b00000000000000000000000000010011 >
b00000000000000000000000000011000 ?
1`
b00000000000000000000000001011101 y
#43
0`
#44
b10 #
b11111111111111111111111111111100 $
b00000000000000000000000000011000 %
b11111110000000111001111011100011 &
b010 '
b00000 )
b11101 *
0+
b00000000000000000000000001011101 ,
b1011 .
0/
b00000000000000000000000000000000 3
14
b00000000000000000000000000000000 5
b1100011 6
b001 7
b01 9
1<
b00000000000000000000000000011100 =
b00000000000000000000000000010100 >
b00000000000000000000000000010100 ?
b00000000000000000000000001011101 G
1`
b00000000000000000000000000000000 y
#45
0`
#46
b00 #
b11111111111111111111111111111111 $
b00000000000000000000000000010100 %
b11111111111100111000001110010011 &
b000 '
b11111 )
b00111 *
1+
b0000 .
1/
b00000000000000000000000001011100 3
04
b11111111111111111111111111111111 5
b0010011 6
b000 7
b10 9
0<
b00000000000000000000000000011000 =
b00000000000000000000000000010011 >
b00000000000000000000000000011000 ?
1`
b00000000000000000000000001011100 y
#47
0`
#48
b10 #
b11111111111111111111111111111100 $
b00000000000000000000000000011000 %
b11111110000000111001111011100011 &
b010 '
b00000 )
b11101 *
0+
b00000000000000000000000001011100 ,
b1011 .
0/
b00000000000000000000000000000000 3
14
b00000000000000000000000000000000 5
b1100011 6
b001 7
b01 9
1<
b00000000000000000000000000011100 =
b00000000000000000000000000010100 >
b00000000000000000000000000010100 ?
b00000000000000000000000001011100 G
1`
b00000000000000000000000000000000 y
#49
0`
#50
b00 #
b11111111111111111111111111111111 $
b00000000000000000000000000010100 %
b11111111111100111000001110010011 &
b000 '
b11111 )
b00111 *
1+
b0000 .
1/
b00000000000000000000000001011011 3
04
b11111111111111111111111111111111 5
b0010011 6
b000 7
b10 9
0<
b00000000000000000000000000011000 =
b00000000000000000000000000010011 >
b00000000000000000000000000011000 ?
1`
b00000000000000000000000001011011 y
#51
0`
#52
b10 #
b11111111111111111111111111111100 $
b00000000000000000000000000011000 %
b11111110000000111001111011100011 &
b010 '
b00000 )
b11101 *
0+
b00000000000000000000000001011011 ,
b1011 .
0/
b00000000000000000000000000000000 3
14
b00000000000000000000000000000000 5
b1100011 6
b001 7
b01 9
1<
b00000000000000000000000000011100 =
b00000000000000000000000000010100 >
b00000000000000000000000000010100 ?
b00000000000000000000000001011011 G
1`
b00000000000000000000000000000000 y
#53
0`
#54
b00 #
b11111111111111111111111111111111 $
b00000000000000000000000000010100 %
b11111111111100111000001110010011 &
b000 '
b11111 )
b00111 *
1+
b0000 .
1/
b00000000000000000000000001011010 3
04
b11111111111111111111111111111111 5
b0010011 6
b000 7
b10 9
0<
b00000000000000000000000000011000 =
b00000000000000000000000000010011 >
b00000000000000000000000000011000 ?
1`
b00000000000000000000000001011010 y
#55
0`
#56
b10 #
b11111111111111111111111111111100 $
b00000000000000000000000000011000 %
b11111110000000111001111011100011 &
b010 '
b00000 )
b11101 *
0+
b00000000000000000000000001011010 ,
b1011 .
0/
b00000000000000000000000000000000 3
14
b00000000000000000000000000000000 5
b1100011 6
b001 7
b01 9
1<
b00000000000000000000000000011100 =
b00000000000000000000000000010100 >
b00000000000000000000000000010100 ?
b00000000000000000000000001011010 G
1`
b00000000000000000000000000000000 y
#57
0`
#58
b00 #
b11111111111111111111111111111111 $
b00000000000000000000000000010100 %
b11111111111100111000001110010011 &
b000 '
b11111 )
b00111 *
1+
b0000 .
1/
b00000000000000000000000001011001 3
04
b11111111111111111111111111111111 5
b0010011 6
b000 7
b10 9
0<
b00000000000000000000000000011000 =
b00000000000000000000000000010011 >
b00000000000000000000000000011000 ?
1`
b00000000000000000000000001011001 y
#59
0`
#60
b10 #
b11111111111111111111111111111100 $
b00000000000000000000000000011000 %
b11111110000000111001111011100011 &
b010 '
b00000 )
b11101 *
0+
b00000000000000000000000001011001 ,
b1011 .
0/
b00000000000000000000000000000000 3
14
b00000000000000000000000000000000 5
b1100011 6
b001 7
b01 9
1<
b00000000000000000000000000011100 =
b00000000000000000000000000010100 >
b00000000000000000000000000010100 ?
b00000000000000000000000001011001 G
1`
b00000000000000000000000000000000 y
#61
0`
#62
b00 #
b11111111111111111111111111111111 $
b00000000000000000000000000010100 %
b11111111111100111000001110010011 &
b000 '
b11111 )
b00111 *
1+
b0000 .
1/
b00000000000000000000000001011000 3
04
b11111111111111111111111111111111 5
b0010011 6
b000 7
b10 9
0<
b00000000000000000000000000011000 =
b00000000000000000000000000010011 >
b00000000000000000000000000011000 ?
1`
b00000000000000000000000001011000 y
#63
0`
#64
b10 #
b11111111111111111111111111111100 $
b00000000000000000000000000011000 %
b11111110000000111001111011100011 &
b010 '
b00000 )
b11101 *
0+
b00000000000000000000000001011000 ,
b1011 .
0/
b00000000000000000000000000000000 3
14
b00000000000000000000000000000000 5
b1100011 6
b001 7
b01 9
1<
b00000000000000000000000000011100 =
b00000000000000000000000000010100 >
b00000000000000000000000000010100 ?
b00000000000000000000000001011000 G
1`
b00000000000000000000000000000000 y
#65
0`
#66
b00 #
b11111111111111111111111111111111 $
b00000000000000000000000000010100 %
b11111111111100111000001110010011 &
b000 '
b11111 )
b00111 *
1+
b0000 .
1/
b00000000000000000000000001010111 3
04
b11111111111111111111111111111111 5
b0010011 6
b000 7
b10 9
0<
b00000000000000000000000000011000 =
b00000000000000000000000000010011 >
b00000000000000000000000000011000 ?
1`
b00000000000000000000000001010111 y
#67
0`
#68
b10 #
b11111111111111111111111111111100 $
b00000000000000000000000000011000 %
b11111110000000111001111011100011 &
b010 '
b00000 )
b11101 *
0+
b00000000000000000000000001010111 ,
b1011 .
0/
b00000000000000000000000000000000 3
14
b00000000000000000000000000000000 5
b1100011 6
b001 7
b01 9
1<
b00000000000000000000000000011100 =
b00000000000000000000000000010100 >
b00000000000000000000000000010100 ?
b00000000000000000000000001010111 G
1`
b00000000000000000000000000000000 y
#69
0`
#70
b00 #
b11111111111111111111111111111111 $
b00000000000000000000000000010100 %
b11111111111100111000001110010011 &
b000 '
b11111 )
b00111 *
1+
b0000 .
1/
b00000000000000000000000001010110 3
04
b11111111111111111111111111111111 5
b0010011 6
b000 7
b10 9
0<
b00000000000000000000000000011000 =
b00000000000000000000000000010011 >
b00000000000000000000000000011000 ?
1`
b00000000000000000000000001010110 y
#71
0`
#72
b10 #
b11111111111111111111111111111100 $
b00000000000000000000000000011000 %
b11111110000000111001111011100011 &
b010 '
b00000 )
b11101 *
0+
b00000000000000000000000001010110 ,
b1011 .
0/
b00000000000000000000000000000000 3
14
b00000000000000000000000000000000 5
b1100011 6
b001 7
b01 9
1<
b00000000000000000000000000011100 =
b00000000000000000000000000010100 >
b00000000000000000000000000010100 ?
b00000000000000000000000001010110 G
1`
b00000000000000000000000000000000 y
#73
0`
#74
b00 #
b11111111111111111111111111111111 $
b00000000000000000000000000010100 %
b11111111111100111000001110010011 &
b000 '
b11111 )
b00111 *
1+
b0000 .
1/
b00000000000000000000000001010101 3
04
b11111111111111111111111111111111 5
b0010011 6
b000 7
b10 9
0<
b00000000000000000000000000011000 =
b00000000000000000000000000010011 >
b00000000000000000000000000011000 ?
1`
b00000000000000000000000001010101 y
#75
0`
#76
b10 #
b11111111111111111111111111111100 $
b00000000000000000000000000011000 %
b11111110000000111001111011100011 &
b010 '
b00000 )
b11101 *
0+
b00000000000000000000000001010101 ,
b1011 .
0/
b00000000000000000000000000000000 3
14
b00000000000000000000000000000000 5
b1100011 6
b001 7
b01 9
1<
b00000000000000000000000000011100 =
b00000000000000000000000000010100 >
b00000000000000000000000000010100 ?
b00000000000000000000000001010101 G
1`
b00000000000000000000000000000000 y
#77
0`
#78
b00 #
b11111111111111111111111111111111 $
b00000000000000000000000000010100 %
b11111111111100111000001110010011 &
b000 '
b11111 )
b00111 *
1+
b0000 .
1/
b00000000000000000000000001010100 3
04
b11111111111111111111111111111111 5
b0010011 6
b000 7
b10 9
0<
b00000000000000000000000000011000 =
b00000000000000000000000000010011 >
b00000000000000000000000000011000 ?
1`
b00000000000000000000000001010100 y
#79
0`
#80
b10 #
b11111111111111111111111111111100 $
b00000000000000000000000000011000 %
b11111110000000111001111011100011 &
b010 '
b00000 )
b11101 *
0+
b00000000000000000000000001010100 ,
b1011 .
0/
b00000000000000000000000000000000 3
14
b00000000000000000000000000000000 5
b1100011 6
b001 7
b01 9
1<
b00000000000000000000000000011100 =
b00000000000000000000000000010100 >
b00000000000000000000000000010100 ?
b00000000000000000000000001010100 G
1`
b00000000000000000000000000000000 y
#81
0`
#82
b00 #
b11111111111111111111111111111111 $
b00000000000000000000000000010100 %
b11111111111100111000001110010011 &
b000 '
b11111 )
b00111 *
1+
b0000 .
1/
b00000000000000000000000001010011 3
04
b11111111111111111111111111111111 5
b0010011 6
b000 7
b10 9
0<
b00000000000000000000000000011000 =
b00000000000000000000000000010011 >
b00000000000000000000000000011000 ?
1`
b00000000000000000000000001010011 y
#83
0`
#84
b10 #
b11111111111111111111111111111100 $
b00000000000000000000000000011000 %
b11111110000000111001111011100011 &
b010 '
b00000 )
b11101 *
0+
b00000000000000000000000001010011 ,
b1011 .
0/
b00000000000000000000000000000000 3
14
b00000000000000000000000000000000 5
b1100011 6
b001 7
b01 9
1<
b00000000000000000000000000011100 =
b00000000000000000000000000010100 >
b00000000000000000000000000010100 ?
b00000000000000000000000001010011 G
1`
b00000000000000000000000000000000 y
#85
0`
#86
b00 #
b11111111111111111111111111111111 $
b00000000000000000000000000010100 %
b11111111111100111000001110010011 &
b000 '
b11111 )
b00111 *
1+
b0000 .
1/
b00000000000000000000000001010010 3
04
b11111111111111111111111111111111 5
b0010011 6
b000 7
b10 9
0<
b00000000000000000000000000011000 =
b00000000000000000000000000010011 >
b00000000000000000000000000011000 ?
1`
b00000000000000000000000001010010 y
#87
0`
#88
b10 #
b11111111111111111111111111111100 $
b00000000000000000000000000011000 %
b11111110000000111001111011100011 &
b010 '
b00000 )
b11101 *
0+
b00000000000000000000000001010010 ,
b1011 .
0/
b00000000000000000000000000000000 3
14
b00000000000000000000000000000000 5
b1100011 6
b001 7
b01 9
1<
b00000000000000000000000000011100 =
b00000000000000000000000000010100 >
b00000000000000000000000000010100 ?
b00000000000000000000000001010010 G
1`
b00000000000000000000000000000000 y
#89
0`
#90
b00 #
b11111111111111111111111111111111 $
b00000000000000000000000000010100 %
b11111111111100111000001110010011 &
b000 '
b11111 )
b00111 *
1+
b0000 .
1/
b00000000000000000000000001010001 3
04
b11111111111111111111111111111111 5
b0010011 6
b000 7
b10 9
0<
b00000000000000000000000000011000 =
b00000000000000000000000000010011 >
b00000000000000000000000000011000 ?
1`
b00000000000000000000000001010001 y
#91
0`
