rtl_single_cycle/VCD/F1.vcd
$version Generated by VerilatedVcd $end
$date Mon Dec  9 10:29:13 2024 $end
$timescale 1ps $end

 $scope module TOP $end
  $var wire 32 c a0 [31:0] $end
  $var wire 32 d a1 [31:0] $end
  $var wire 32 e a2 [31:0] $end
  $var wire 32 f a3 [31:0] $end
  $var wire 32 g a4 [31:0] $end
  $var wire 32 h a5 [31:0] $end
  $var wire 32 i a6 [31:0] $end
  $var wire 32 j a7 [31:0] $end
  $var wire  1 ` clk $end
  $var wire  1 a rst $end
  $var wire 32 r s0 [31:0] $end
  $var wire 32 s s1 [31:0] $end
  $var wire 32 | s10 [31:0] $end
  $var wire 32 } s11 [31:0] $end
  $var wire 32 t s2 [31:0] $end
  $var wire 32 u s3 [31:0] $end
  $var wire 32 v s4 [31:0] $end
  $var wire 32 w s5 [31:0] $end
  $var wire 32 x s6 [31:0] $end
  $var wire 32 y s7 [31:0] $end
  $var wire 32 z s8 [31:0] $end
  $var wire 32 { s9 [31:0] $end
  $var wire 32 k t0 [31:0] $end
  $var wire 32 l t1 [31:0] $end
  $var wire 32 m t2 [31:0] $end
  $var wire 32 n t3 [31:0] $end
  $var wire 32 o t4 [31:0] $end
  $var wire 32 p t5 [31:0] $end
  $var wire 32 q t6 [31:0] $end
  $var wire  1 b trigger $end
  $scope module top $end
   $var wire  5 ( A1 [4:0] $end
   $var wire  5 ) A2 [4:0] $end
   $var wire  5 * A3 [4:0] $end
   $var wire 32 3 ALUResult [31:0] $end
   $var wire  1 / ALUSrc $end
   $var wire  4 . ALUctrl [3:0] $end
   $var wire 32 $ ExtImm [31:0] $end
   $var wire  3 ' ImmSrc [2:0] $end
   $var wire  1 1 MemWrite $end
   $var wire 32 % PC [31:0] $end
   $var wire  2 # PCSrc [1:0] $end
   $var wire 32 ~ RD [31:0] $end
   $var wire 32 , RD1 [31:0] $end
   $var wire 32 - RD2 [31:0] $end
   $var wire  1 + RegWrite $end
   $var wire 32 !! Result [31:0] $end
   $var wire  2 0 ResultSrc [1:0] $end
   $var wire 32 , SrcA [31:0] $end
   $var wire 32 5 SrcB [31:0] $end
   $var wire 32 "! WIDTH [31:0] $end
   $var wire  1 4 Zero $end
   $var wire 32 c a0 [31:0] $end
   $var wire 32 d a1 [31:0] $end
   $var wire 32 e a2 [31:0] $end
   $var wire 32 f a3 [31:0] $end
   $var wire 32 g a4 [31:0] $end
   $var wire 32 h a5 [31:0] $end
   $var wire 32 i a6 [31:0] $end
   $var wire 32 j a7 [31:0] $end
   $var wire 32 % addr [31:0] $end
   $var wire  1 ` clk $end
   $var wire 32 & instr [31:0] $end
   $var wire  3 2 modeBU [2:0] $end
   $var wire  1 a rst $end
   $var wire 32 r s0 [31:0] $end
   $var wire 32 s s1 [31:0] $end
   $var wire 32 | s10 [31:0] $end
   $var wire 32 } s11 [31:0] $end
   $var wire 32 t s2 [31:0] $end
   $var wire 32 u s3 [31:0] $end
   $var wire 32 v s4 [31:0] $end
   $var wire 32 w s5 [31:0] $end
   $var wire 32 x s6 [31:0] $end
   $var wire 32 y s7 [31:0] $end
   $var wire 32 z s8 [31:0] $end
   $var wire 32 { s9 [31:0] $end
   $var wire 32 k t0 [31:0] $end
   $var wire 32 l t1 [31:0] $end
   $var wire 32 m t2 [31:0] $end
   $var wire 32 n t3 [31:0] $end
   $var wire 32 o t4 [31:0] $end
   $var wire 32 p t5 [31:0] $end
   $var wire 32 q t6 [31:0] $end
   $var wire  1 b trigger $end
   $scope module alu $end
    $var wire 32 3 ALUResult [31:0] $end
    $var wire  4 . ALUctrl [3:0] $end
    $var wire 32 #! CONTROL_WIDTH [31:0] $end
    $var wire 32 "! DATA_WIDTH [31:0] $end
    $var wire 32 , SrcA [31:0] $end
    $var wire 32 5 SrcB [31:0] $end
    $var wire  1 4 Zero $end
   $upscope $end
   $scope module control_unit $end
    $var wire  4 . ALUCtrl [3:0] $end
    $var wire  2 9 ALUOp [1:0] $end
    $var wire  1 / ALUSrc $end
    $var wire 32 "! DATA_WIDTH [31:0] $end
    $var wire  3 ' ImmSrc [2:0] $end
    $var wire 32 & Instr [31:0] $end
    $var wire  1 ; Load $end
    $var wire  1 1 MemWrite $end
    $var wire  2 # PCSrc [1:0] $end
    $var wire  1 + RegWrite $end
    $var wire  2 0 ResultSrc [1:0] $end
    $var wire  1 : Store $end
    $var wire  3 7 funct3 [14:12] $end
    $var wire  1 8 funct7 $end
    $var wire  3 2 modeBU [2:0] $end
    $var wire  7 6 op [6:0] $end
    $scope module alu_decoder $end
     $var wire  4 . ALUCtrl [3:0] $end
     $var wire  2 9 ALUOp [1:0] $end
     $var wire  3 7 funct3 [2:0] $end
     $var wire  1 8 funct7 $end
     $var wire  1 < op $end
    $upscope $end
   $upscope $end
   $scope module data_memory $end
    $var wire 32 3 A [31:0] $end
    $var wire 32 ~ RD [31:0] $end
    $var wire 32 !! Result [31:0] $end
    $var wire  2 0 ResultSrc [1:0] $end
    $var wire 32 - WD [31:0] $end
    $var wire  1 1 WE $end
    $var wire 32 "! WIDTH [31:0] $end
    $var wire  1 ` clk $end
    $var wire  3 2 modeBU [2:0] $end
    $var wire  1 b trigger $end
   $upscope $end
   $scope module instruction_memory $end
    $var wire 32 "! ADDRESS_WIDTH [31:0] $end
    $var wire 32 "! DATA_WIDTH [31:0] $end
    $var wire 32 % PC [31:0] $end
    $var wire 32 & instr [31:0] $end
   $upscope $end
   $scope module pc $end
    $var wire 32 3 ALUResult [31:0] $end
    $var wire 32 % PCF [31:0] $end
    $var wire 32 = PCPlus4F [31:0] $end
    $var wire  2 # PCSrc [1:0] $end
    $var wire 32 > PCTarget [31:0] $end
    $var wire 32 "! WIDTH [31:0] $end
    $var wire  1 4 ZeroE $end
    $var wire  1 ` clk $end
    $var wire 32 ? out [31:0] $end
    $var wire  1 a rst $end
   $upscope $end
   $scope module regfile $end
    $var wire  5 ( AD1 [4:0] $end
    $var wire  5 ) AD2 [4:0] $end
    $var wire  5 * AD3 [4:0] $end
    $var wire 32 $! ADDRESS_WIDTH [31:0] $end
    $var wire 32 "! DATA_WIDTH [31:0] $end
    $var wire 32 , RD1 [31:0] $end
    $var wire 32 - RD2 [31:0] $end
    $var wire 32 !! WD3 [31:0] $end
    $var wire  1 + WE3 $end
    $var wire 32 c a0 [31:0] $end
    $var wire 32 d a1 [31:0] $end
    $var wire 32 e a2 [31:0] $end
    $var wire 32 f a3 [31:0] $end
    $var wire 32 g a4 [31:0] $end
    $var wire 32 h a5 [31:0] $end
    $var wire 32 i a6 [31:0] $end
    $var wire 32 j a7 [31:0] $end
    $var wire  1 ` clk $end
    $var wire 32 @ registerfile_array[0] [31:0] $end
    $var wire 32 J registerfile_array[10] [31:0] $end
    $var wire 32 K registerfile_array[11] [31:0] $end
    $var wire 32 L registerfile_array[12] [31:0] $end
    $var wire 32 M registerfile_array[13] [31:0] $end
    $var wire 32 N registerfile_array[14] [31:0] $end
    $var wire 32 O registerfile_array[15] [31:0] $end
    $var wire 32 P registerfile_array[16] [31:0] $end
    $var wire 32 Q registerfile_array[17] [31:0] $end
    $var wire 32 R registerfile_array[18] [31:0] $end
    $var wire 32 S registerfile_array[19] [31:0] $end
    $var wire 32 A registerfile_array[1] [31:0] $end
    $var wire 32 T registerfile_array[20] [31:0] $end
    $var wire 32 U registerfile_array[21] [31:0] $end
    $var wire 32 V registerfile_array[22] [31:0] $end
    $var wire 32 W registerfile_array[23] [31:0] $end
    $var wire 32 X registerfile_array[24] [31:0] $end
    $var wire 32 Y registerfile_array[25] [31:0] $end
    $var wire 32 Z registerfile_array[26] [31:0] $end
    $var wire 32 [ registerfile_array[27] [31:0] $end
    $var wire 32 \ registerfile_array[28] [31:0] $end
    $var wire 32 ] registerfile_array[29] [31:0] $end
    $var wire 32 B registerfile_array[2] [31:0] $end
    $var wire 32 ^ registerfile_array[30] [31:0] $end
    $var wire 32 _ registerfile_array[31] [31:0] $end
    $var wire 32 C registerfile_array[3] [31:0] $end
    $var wire 32 D registerfile_array[4] [31:0] $end
    $var wire 32 E registerfile_array[5] [31:0] $end
    $var wire 32 F registerfile_array[6] [31:0] $end
    $var wire 32 G registerfile_array[7] [31:0] $end
    $var wire 32 H registerfile_array[8] [31:0] $end
    $var wire 32 I registerfile_array[9] [31:0] $end
    $var wire 32 r s0 [31:0] $end
    $var wire 32 s s1 [31:0] $end
    $var wire 32 | s10 [31:0] $end
    $var wire 32 } s11 [31:0] $end
    $var wire 32 t s2 [31:0] $end
    $var wire 32 u s3 [31:0] $end
    $var wire 32 v s4 [31:0] $end
    $var wire 32 w s5 [31:0] $end
    $var wire 32 x s6 [31:0] $end
    $var wire 32 y s7 [31:0] $end
    $var wire 32 z s8 [31:0] $end
    $var wire 32 { s9 [31:0] $end
    $var wire 32 k t0 [31:0] $end
    $var wire 32 l t1 [31:0] $end
    $var wire 32 m t2 [31:0] $end
    $var wire 32 n t3 [31:0] $end
    $var wire 32 o t4 [31:0] $end
    $var wire 32 p t5 [31:0] $end
    $var wire 32 q t6 [31:0] $end
   $upscope $end
   $scope module regfile_mux $end
    $var wire 32 "! WIDTH [31:0] $end
    $var wire 32 3 in0 [31:0] $end
    $var wire 32 ~ in1 [31:0] $end
    $var wire 32 = in2 [31:0] $end
    $var wire 32 !! out [31:0] $end
    $var wire  2 0 sel [1:0] $end
   $upscope $end
   $scope module sign_extend $end
    $var wire 32 "! DATA_WIDTH [31:0] $end
    $var wire 32 $ ImmExt [31:0] $end
    $var wire 32 & ImmInput [31:0] $end
    $var wire  3 ' ImmSrc [2:0] $end
   $upscope $end
  $upscope $end
 $upscope $end
$enddefinitions $end


#0
b00 #
b00000000000000000000000000000000 $
b00000000000000000000000000000000 %
b00000000000000000000000000000000 &
b000 '
b00000 (
b00000 )
b00000 *
0+
b00000000000000000000000000000000 ,
b00000000000000000000000000000000 -
b0000 .
1/
b00 0
01
b000 2
b00000000000000000000000000000000 3
04
b00000000000000000000000000000000 5
b0000000 6
b000 7
08
b00 9
0:
0;
0<
b00000000000000000000000000000100 =
b00000000000000000000000000000000 >
b00000000000000000000000000000100 ?
b00000000000000000000000000000000 @
b00000000000000000000000000000000 A
b00000000000000000000000000000000 B
b00000000000000000000000000000000 C
b00000000000000000000000000000000 D
b00000000000000000000000000000000 E
b00000000000000000000000000000000 F
b00000000000000000000000000000000 G
b00000000000000000000000000000000 H
b00000000000000000000000000000000 I
b00000000000000000000000000000000 J
b00000000000000000000000000000000 K
b00000000000000000000000000000000 L
b00000000000000000000000000000000 M
b00000000000000000000000000000000 N
b00000000000000000000000000000000 O
b00000000000000000000000000000000 P
b00000000000000000000000000000000 Q
b00000000000000000000000000000000 R
b00000000000000000000000000000000 S
b00000000000000000000000000000000 T
b00000000000000000000000000000000 U
b00000000000000000000000000000000 V
b00000000000000000000000000000000 W
b00000000000000000000000000000000 X
b00000000000000000000000000000000 Y
b00000000000000000000000000000000 Z
b00000000000000000000000000000000 [
b00000000000000000000000000000000 \
b00000000000000000000000000000000 ]
b00000000000000000000000000000000 ^
b00000000000000000000000000000000 _
1`
0a
0b
b00000000000000000000000000000000 c
b00000000000000000000000000000000 d
b00000000000000000000000000000000 e
b00000000000000000000000000000000 f
b00000000000000000000000000000000 g
b00000000000000000000000000000000 h
b00000000000000000000000000000000 i
b00000000000000000000000000000000 j
b00000000000000000000000000000000 k
b00000000000000000000000000000000 l
b00000000000000000000000000000000 m
b00000000000000000000000000000000 n
b00000000000000000000000000000000 o
b00000000000000000000000000000000 p
b00000000000000000000000000000000 q
b00000000000000000000000000000000 r
b00000000000000000000000000000000 s
b00000000000000000000000000000000 t
b00000000000000000000000000000000 u
b00000000000000000000000000000000 v
b00000000000000000000000000000000 w
b00000000000000000000000000000000 x
b00000000000000000000000000000000 y
b00000000000000000000000000000000 z
b00000000000000000000000000000000 {
b00000000000000000000000000000000 |
b00000000000000000000000000000000 }
b00000000000000000000000000000000 ~
b00000000000000000000000000000000 !!
b00000000000000000000000000100000 "!
b00000000000000000000000000000100 #!
b00000000000000000000000000000101 $!
#1
b00000000000000000000010100010011 &
b01010 *
1+
b0010011 6
b10 9
0`
#2
b00000000000000000000000011111111 $
b00000000000000000000000000000100 %
b00001111111100000000011100010011 &
b11111 )
b01110 *
b00000000000000000000000011111111 3
b00000000000000000000000011111111 5
b00000000000000000000000000001000 =
b00000000000000000000000100000011 >
b00000000000000000000000000001000 ?
1`
1a
b00000000000000000000000011111111 !!
#3
0`
#4
b00000000000000000000000000000000 $
b00000000000000000000000000000000 %
b00000000000000000000010100010011 &
b00000 )
b01010 *
b00000000000000000000000000000000 3
b00000000000000000000000000000000 5
b00000000000000000000000000000100 =
b00000000000000000000000000000000 >
b00000000000000000000000000000100 ?
b00000000000000000000000011111111 N
1`
b00000000000000000000000011111111 g
b00000000000000000000000000000000 !!
#5
0`
#6
1`
#7
0`
#8
1`
0a
#9
0`
#10
b00000000000000000000000011111111 $
b00000000000000000000000000000100 %
b00001111111100000000011100010011 &
b11111 )
b01110 *
b00000000000000000000000011111111 3
b00000000000000000000000011111111 5
b00000000000000000000000000001000 =
b00000000000000000000000100000011 >
b00000000000000000000000000001000 ?
1`
b00000000000000000000000011111111 !!
#11
0`
#12
b00000000000000000001000000000000 $
b00000000000000000000000000001000 %
b00000000000000000001010110110111 &
b011 '
b00000 )
b01011 *
b00000000000000000001000000000000 3
b00000000000000000001000000000000 5
b0110111 6
b001 7
b00 9
1<
b00000000000000000000000000001100 =
b00000000000000000001000000001000 >
b00000000000000000000000000001100 ?
1`
b00000000000000000001000000000000 !!
#13
0`
#14
b11111111111111111111101010111100 $
b00000000000000000000000000001100 %
b10101011110001011000010110010011 &
b000 '
b01011 (
b11100 )
b00000000000000000001000000000000 ,
b00000000000000000000101010111100 3
b11111111111111111111101010111100 5
b0010011 6
b000 7
b10 9
0<
b00000000000000000000000000010000 =
b11111111111111111111101011001000 >
b00000000000000000000000000010000 ?
b00000000000000000001000000000000 K
1`
b00000000000000000001000000000000 d
b00000000000000000000101010111100 !!
#15
0`
#16
b00000000000000000000000000000000 $
b00000000000000000000000000010000 %
b00000000000000000000010100010011 &
b00000 (
b00000 )
b01010 *
b00000000000000000000000000000000 ,
b00000000000000000000000000000000 3
b00000000000000000000000000000000 5
b00000000000000000000000000010100 =
b00000000000000000000000000010000 >
b00000000000000000000000000010100 ?
b00000000000000000000101010111100 K
1`
b00000000000000000000101010111100 d
b00000000000000000000000000000000 !!
#17
0`
#18
b00000000000000000000000100000000 $
b00000000000000000000000000010100 %
b00010000000000000010011110000011 &
b01111 *
b01 0
b001 2
b00000000000000000000000100000000 3
b00000000000000000000000100000000 5
b0000011 6
b010 7
b00 9
1;
b00000000000000000000000000011000 =
b00000000000000000000000100010100 >
b00000000000000000000000000011000 ?
1`
#19
0`
#20
b00000000000000000000000000000001 $
b00000000000000000000000000011000 %
b00000000000101111111011110010011 &
b01111 (
b00001 )
b0100 .
b00 0
b000 2
b00000000000000000000000000000000 3
b00000000000000000000000000000001 5
b0010011 6
b111 7
b10 9
0;
b00000000000000000000000000011100 =
b00000000000000000000000000011001 >
b00000000000000000000000000011100 ?
1`
#21
0`
#22
b10 #
b11111111111111111111111111110100 $
b00000000000000000000000000011100 %
b11111110000001111000101011100011 &
b010 '
b00000 )
b10101 *
0+
b1010 .
0/
14
b00000000000000000000000000000000 5
b1100011 6
b000 7
18
b01 9
1<
b00000000000000000000000000100000 =
b00000000000000000000000000010000 >
b00000000000000000000000000010000 ?
1`
#23
0`
#24
b00 #
b00000000000000000000000000000000 $
b00000000000000000000000000010000 %
b00000000000000000000010100010011 &
b000 '
b00000 (
b01010 *
1+
b0000 .
1/
04
b0010011 6
08
b10 9
0<
b00000000000000000000000000010100 =
b00000000000000000000000000010100 ?
1`
#25
0`
#26
b00000000000000000000000100000000 $
b00000000000000000000000000010100 %
b00010000000000000010011110000011 &
b01111 *
b01 0
b001 2
b00000000000000000000000100000000 3
b00000000000000000000000100000000 5
b0000011 6
b010 7
b00 9
1;
b00000000000000000000000000011000 =
b00000000000000000000000100010100 >
b00000000000000000000000000011000 ?
1`
#27
0`
#28
b00000000000000000000000000000001 $
b00000000000000000000000000011000 %
b00000000000101111111011110010011 &
b01111 (
b00001 )
b0100 .
b00 0
b000 2
b00000000000000000000000000000000 3
b00000000000000000000000000000001 5
b0010011 6
b111 7
b10 9
0;
b00000000000000000000000000011100 =
b00000000000000000000000000011001 >
b00000000000000000000000000011100 ?
1`
#29
0`
#30
b10 #
b11111111111111111111111111110100 $
b00000000000000000000000000011100 %
b11111110000001111000101011100011 &
b010 '
b00000 )
b10101 *
0+
b1010 .
0/
14
b00000000000000000000000000000000 5
b1100011 6
b000 7
18
b01 9
1<
b00000000000000000000000000100000 =
b00000000000000000000000000010000 >
b00000000000000000000000000010000 ?
1`
#31
0`
#32
b00 #
b00000000000000000000000000000000 $
b00000000000000000000000000010000 %
b00000000000000000000010100010011 &
b000 '
b00000 (
b01010 *
1+
b0000 .
1/
04
b0010011 6
08
b10 9
0<
b00000000000000000000000000010100 =
b00000000000000000000000000010100 ?
1`
#33
0`
#34
b00000000000000000000000100000000 $
b00000000000000000000000000010100 %
b00010000000000000010011110000011 &
b01111 *
b01 0
b001 2
b00000000000000000000000100000000 3
b00000000000000000000000100000000 5
b0000011 6
b010 7
b00 9
1;
b00000000000000000000000000011000 =
b00000000000000000000000100010100 >
b00000000000000000000000000011000 ?
1`
#35
0`
#36
b00000000000000000000000000000001 $
b00000000000000000000000000011000 %
b00000000000101111111011110010011 &
b01111 (
b00001 )
b0100 .
b00 0
b000 2
b00000000000000000000000000000000 3
b00000000000000000000000000000001 5
b0010011 6
b111 7
b10 9
0;
b00000000000000000000000000011100 =
b00000000000000000000000000011001 >
b00000000000000000000000000011100 ?
1`
#37
0`
#38
b10 #
b11111111111111111111111111110100 $
b00000000000000000000000000011100 %
b11111110000001111000101011100011 &
b010 '
b00000 )
b10101 *
0+
b1010 .
0/
14
b00000000000000000000000000000000 5
b1100011 6
b000 7
18
b01 9
1<
b00000000000000000000000000100000 =
b00000000000000000000000000010000 >
b00000000000000000000000000010000 ?
1`
#39
0`
#40
b00 #
b00000000000000000000000000000000 $
b00000000000000000000000000010000 %
b00000000000000000000010100010011 &
b000 '
b00000 (
b01010 *
1+
b0000 .
1/
04
b0010011 6
08
b10 9
0<
b00000000000000000000000000010100 =
b00000000000000000000000000010100 ?
1`
#41
0`
#42
b00000000000000000000000100000000 $
b00000000000000000000000000010100 %
b00010000000000000010011110000011 &
b01111 *
b01 0
b001 2
b00000000000000000000000100000000 3
b00000000000000000000000100000000 5
b0000011 6
b010 7
b00 9
1;
b00000000000000000000000000011000 =
b00000000000000000000000100010100 >
b00000000000000000000000000011000 ?
1`
#43
0`
#44
b00000000000000000000000000000001 $
b00000000000000000000000000011000 %
b00000000000101111111011110010011 &
b01111 (
b00001 )
b0100 .
b00 0
b000 2
b00000000000000000000000000000000 3
b00000000000000000000000000000001 5
b0010011 6
b111 7
b10 9
0;
b00000000000000000000000000011100 =
b00000000000000000000000000011001 >
b00000000000000000000000000011100 ?
1`
#45
0`
#46
b10 #
b11111111111111111111111111110100 $
b00000000000000000000000000011100 %
b11111110000001111000101011100011 &
b010 '
b00000 )
b10101 *
0+
b1010 .
0/
14
b00000000000000000000000000000000 5
b1100011 6
b000 7
18
b01 9
1<
b00000000000000000000000000100000 =
b00000000000000000000000000010000 >
b00000000000000000000000000010000 ?
1`
#47
0`
#48
b00 #
b00000000000000000000000000000000 $
b00000000000000000000000000010000 %
b00000000000000000000010100010011 &
b000 '
b00000 (
b01010 *
1+
b0000 .
1/
04
b0010011 6
08
b10 9
0<
b00000000000000000000000000010100 =
b00000000000000000000000000010100 ?
1`
#49
0`
#50
b00000000000000000000000100000000 $
b00000000000000000000000000010100 %
b00010000000000000010011110000011 &
b01111 *
b01 0
b001 2
b00000000000000000000000100000000 3
b00000000000000000000000100000000 5
b0000011 6
b010 7
b00 9
1;
b00000000000000000000000000011000 =
b00000000000000000000000100010100 >
b00000000000000000000000000011000 ?
1`
#51
0`
#52
b00000000000000000000000000000001 $
b00000000000000000000000000011000 %
b00000000000101111111011110010011 &
b01111 (
b00001 )
b0100 .
b00 0
b000 2
b00000000000000000000000000000000 3
b00000000000000000000000000000001 5
b0010011 6
b111 7
b10 9
0;
b00000000000000000000000000011100 =
b00000000000000000000000000011001 >
b00000000000000000000000000011100 ?
1`
#53
0`
#54
b10 #
b11111111111111111111111111110100 $
b00000000000000000000000000011100 %
b11111110000001111000101011100011 &
b010 '
b00000 )
b10101 *
0+
b1010 .
0/
14
b00000000000000000000000000000000 5
b1100011 6
b000 7
18
b01 9
1<
b00000000000000000000000000100000 =
b00000000000000000000000000010000 >
b00000000000000000000000000010000 ?
1`
#55
0`
#56
b00 #
b00000000000000000000000000000000 $
b00000000000000000000000000010000 %
b00000000000000000000010100010011 &
b000 '
b00000 (
b01010 *
1+
b0000 .
1/
04
b0010011 6
08
b10 9
0<
b00000000000000000000000000010100 =
b00000000000000000000000000010100 ?
1`
#57
0`
#58
b00000000000000000000000100000000 $
b00000000000000000000000000010100 %
b00010000000000000010011110000011 &
b01111 *
b01 0
b001 2
b00000000000000000000000100000000 3
b00000000000000000000000100000000 5
b0000011 6
b010 7
b00 9
1;
b00000000000000000000000000011000 =
b00000000000000000000000100010100 >
b00000000000000000000000000011000 ?
1`
#59
0`
#60
b00000000000000000000000000000001 $
b00000000000000000000000000011000 %
b00000000000101111111011110010011 &
b01111 (
b00001 )
b0100 .
b00 0
b000 2
b00000000000000000000000000000000 3
b00000000000000000000000000000001 5
b0010011 6
b111 7
b10 9
0;
b00000000000000000000000000011100 =
b00000000000000000000000000011001 >
b00000000000000000000000000011100 ?
1`
#61
0`
#62
b10 #
b11111111111111111111111111110100 $
b00000000000000000000000000011100 %
b11111110000001111000101011100011 &
b010 '
b00000 )
b10101 *
0+
b1010 .
0/
14
b00000000000000000000000000000000 5
b1100011 6
b000 7
18
b01 9
1<
b00000000000000000000000000100000 =
b00000000000000000000000000010000 >
b00000000000000000000000000010000 ?
1`
#63
0`
#64
b00 #
b00000000000000000000000000000000 $
b00000000000000000000000000010000 %
b00000000000000000000010100010011 &
b000 '
b00000 (
b01010 *
1+
b0000 .
1/
04
b0010011 6
08
b10 9
0<
b00000000000000000000000000010100 =
b00000000000000000000000000010100 ?
1`
#65
0`
#66
b00000000000000000000000100000000 $
b00000000000000000000000000010100 %
b00010000000000000010011110000011 &
b01111 *
b01 0
b001 2
b00000000000000000000000100000000 3
b00000000000000000000000100000000 5
b0000011 6
b010 7
b00 9
1;
b00000000000000000000000000011000 =
b00000000000000000000000100010100 >
b00000000000000000000000000011000 ?
1`
#67
0`
#68
b00000000000000000000000000000001 $
b00000000000000000000000000011000 %
b00000000000101111111011110010011 &
b01111 (
b00001 )
b0100 .
b00 0
b000 2
b00000000000000000000000000000000 3
b00000000000000000000000000000001 5
b0010011 6
b111 7
b10 9
0;
b00000000000000000000000000011100 =
b00000000000000000000000000011001 >
b00000000000000000000000000011100 ?
1`
#69
0`
#70
b10 #
b11111111111111111111111111110100 $
b00000000000000000000000000011100 %
b11111110000001111000101011100011 &
b010 '
b00000 )
b10101 *
0+
b1010 .
0/
14
b00000000000000000000000000000000 5
b1100011 6
b000 7
18
b01 9
1<
b00000000000000000000000000100000 =
b00000000000000000000000000010000 >
b00000000000000000000000000010000 ?
1`
#71
0`
#72
b00 #
b00000000000000000000000000000000 $
b00000000000000000000000000010000 %
b00000000000000000000010100010011 &
b000 '
b00000 (
b01010 *
1+
b0000 .
1/
04
b0010011 6
08
b10 9
0<
b00000000000000000000000000010100 =
b00000000000000000000000000010100 ?
1`
#73
0`
#74
b00000000000000000000000100000000 $
b00000000000000000000000000010100 %
b00010000000000000010011110000011 &
b01111 *
b01 0
b001 2
b00000000000000000000000100000000 3
b00000000000000000000000100000000 5
b0000011 6
b010 7
b00 9
1;
b00000000000000000000000000011000 =
b00000000000000000000000100010100 >
b00000000000000000000000000011000 ?
1`
#75
0`
#76
b00000000000000000000000000000001 $
b00000000000000000000000000011000 %
b00000000000101111111011110010011 &
b01111 (
b00001 )
b0100 .
b00 0
b000 2
b00000000000000000000000000000000 3
b00000000000000000000000000000001 5
b0010011 6
b111 7
b10 9
0;
b00000000000000000000000000011100 =
b00000000000000000000000000011001 >
b00000000000000000000000000011100 ?
1`
#77
0`
#78
b10 #
b11111111111111111111111111110100 $
b00000000000000000000000000011100 %
b11111110000001111000101011100011 &
b010 '
b00000 )
b10101 *
0+
b1010 .
0/
14
b00000000000000000000000000000000 5
b1100011 6
b000 7
18
b01 9
1<
b00000000000000000000000000100000 =
b00000000000000000000000000010000 >
b00000000000000000000000000010000 ?
1`
#79
0`
#80
b00 #
b00000000000000000000000000000000 $
b00000000000000000000000000010000 %
b00000000000000000000010100010011 &
b000 '
b00000 (
b01010 *
1+
b0000 .
1/
04
b0010011 6
08
b10 9
0<
b00000000000000000000000000010100 =
b00000000000000000000000000010100 ?
1`
#81
0`
#82
b00000000000000000000000100000000 $
b00000000000000000000000000010100 %
b00010000000000000010011110000011 &
b01111 *
b01 0
b001 2
b00000000000000000000000100000000 3
b00000000000000000000000100000000 5
b0000011 6
b010 7
b00 9
1;
b00000000000000000000000000011000 =
b00000000000000000000000100010100 >
b00000000000000000000000000011000 ?
1`
#83
0`
#84
b00000000000000000000000000000001 $
b00000000000000000000000000011000 %
b00000000000101111111011110010011 &
b01111 (
b00001 )
b0100 .
b00 0
b000 2
b00000000000000000000000000000000 3
b00000000000000000000000000000001 5
b0010011 6
b111 7
b10 9
0;
b00000000000000000000000000011100 =
b00000000000000000000000000011001 >
b00000000000000000000000000011100 ?
1`
#85
0`
#86
b10 #
b11111111111111111111111111110100 $
b00000000000000000000000000011100 %
b11111110000001111000101011100011 &
b010 '
b00000 )
b10101 *
0+
b1010 .
0/
14
b00000000000000000000000000000000 5
b1100011 6
b000 7
18
b01 9
1<
b00000000000000000000000000100000 =
b00000000000000000000000000010000 >
b00000000000000000000000000010000 ?
1`
#87
0`
#88
b00 #
b00000000000000000000000000000000 $
b00000000000000000000000000010000 %
b00000000000000000000010100010011 &
b000 '
b00000 (
b01010 *
1+
b0000 .
1/
04
b0010011 6
08
b10 9
0<
b00000000000000000000000000010100 =
b00000000000000000000000000010100 ?
1`
#89
0`
#90
b00000000000000000000000100000000 $
b00000000000000000000000000010100 %
b00010000000000000010011110000011 &
b01111 *
b01 0
b001 2
b00000000000000000000000100000000 3
b00000000000000000000000100000000 5
b0000011 6
b010 7
b00 9
1;
b00000000000000000000000000011000 =
b00000000000000000000000100010100 >
b00000000000000000000000000011000 ?
1`
#91
0`
#92
b00000000000000000000000000000001 $
b00000000000000000000000000011000 %
b00000000000101111111011110010011 &
b01111 (
b00001 )
b0100 .
b00 0
b000 2
b00000000000000000000000000000000 3
b00000000000000000000000000000001 5
b0010011 6
b111 7
b10 9
0;
b00000000000000000000000000011100 =
b00000000000000000000000000011001 >
b00000000000000000000000000011100 ?
1`
#93
0`
#94
b10 #
b11111111111111111111111111110100 $
b00000000000000000000000000011100 %
b11111110000001111000101011100011 &
b010 '
b00000 )
b10101 *
0+
b1010 .
0/
14
b00000000000000000000000000000000 5
b1100011 6
b000 7
18
b01 9
1<
b00000000000000000000000000100000 =
b00000000000000000000000000010000 >
b00000000000000000000000000010000 ?
1`
#95
0`
#96
b00 #
b00000000000000000000000000000000 $
b00000000000000000000000000010000 %
b00000000000000000000010100010011 &
b000 '
b00000 (
b01010 *
1+
b0000 .
1/
04
b0010011 6
08
b10 9
0<
b00000000000000000000000000010100 =
b00000000000000000000000000010100 ?
1`
#97
0`
#98
b00000000000000000000000100000000 $
b00000000000000000000000000010100 %
b00010000000000000010011110000011 &
b01111 *
b01 0
b001 2
b00000000000000000000000100000000 3
b00000000000000000000000100000000 5
b0000011 6
b010 7
b00 9
1;
b00000000000000000000000000011000 =
b00000000000000000000000100010100 >
b00000000000000000000000000011000 ?
1`
#99
0`
#100
b00000000000000000000000000000001 $
b00000000000000000000000000011000 %
b00000000000101111111011110010011 &
b01111 (
b00001 )
b0100 .
b00 0
b000 2
b00000000000000000000000000000000 3
b00000000000000000000000000000001 5
b0010011 6
b111 7
b10 9
0;
b00000000000000000000000000011100 =
b00000000000000000000000000011001 >
b00000000000000000000000000011100 ?
1`
#101
0`
#102
b10 #
b11111111111111111111111111110100 $
b00000000000000000000000000011100 %
b11111110000001111000101011100011 &
b010 '
b00000 )
b10101 *
0+
b1010 .
0/
14
b00000000000000000000000000000000 5
b1100011 6
b000 7
18
b01 9
1<
b00000000000000000000000000100000 =
b00000000000000000000000000010000 >
b00000000000000000000000000010000 ?
1`
#103
0`
#104
b00 #
b00000000000000000000000000000000 $
b00000000000000000000000000010000 %
b00000000000000000000010100010011 &
b000 '
b00000 (
b01010 *
1+
b0000 .
1/
04
b0010011 6
08
b10 9
0<
b00000000000000000000000000010100 =
b00000000000000000000000000010100 ?
1`
#105
0`
#106
b00000000000000000000000100000000 $
b00000000000000000000000000010100 %
b00010000000000000010011110000011 &
b01111 *
b01 0
b001 2
b00000000000000000000000100000000 3
b00000000000000000000000100000000 5
b0000011 6
b010 7
b00 9
1;
b00000000000000000000000000011000 =
b00000000000000000000000100010100 >
b00000000000000000000000000011000 ?
1`
#107
0`
#108
b00000000000000000000000000000001 $
b00000000000000000000000000011000 %
b00000000000101111111011110010011 &
b01111 (
b00001 )
b0100 .
b00 0
b000 2
b00000000000000000000000000000000 3
b00000000000000000000000000000001 5
b0010011 6
b111 7
b10 9
0;
b00000000000000000000000000011100 =
b00000000000000000000000000011001 >
b00000000000000000000000000011100 ?
1`
#109
0`
